hour,precipitation,temperature,wind_velocity,wind_direction,hours_of_sunlight,snowfall,snow
1,0.0,-10.9,0.0,静穏,,,
2,0.0,-11.8,0.0,静穏,,,
3,0.0,-12.4,0.1,静穏,,,
4,0.0,-12.2,0.1,静穏,,,
5,0.0,-12.4,0.0,静穏,,,
6,0.0,-12.9,0.1,静穏,,,
7,0.0,-13.0,0.0,静穏,0.0,,
8,0.0,-9.9,0.7,東南東,0.8,,
9,0.0,1.8,1.5,南西,1.0,,
10,0.0,4.6,2.6,南西,1.0,,
11,0.0,5.7,3.1,南西,1.0,,
12,0.0,7.8,2.0,南西,1.0,,
13,0.0,7.6,1.9,西南西,1.0,,
14,0.0,6.4,1.0,西南西,0.7,,
15,0.0,6.2,0.6,北西,0.0,,
16,0.0,5.0,1.1,西北西,0.4,,
17,0.0,0.8,0.0,静穏,0.5,,
18,0.0,-0.8,0.6,東北東,,,
19,0.0,-1.7,0.3,東,,,
20,0.0,-3.0,0.6,東,,,
21,0.0,-4.8,0.1,静穏,,,
22,0.0,-5.1,0.2,静穏,,,
23,0.0,-1.9,1.4,西,,,
24,0.0,1.1,1.3,西南西,,,
