hour,precipitation,temperature,wind_velocity,wind_direction,hours_of_sunlight,snowfall,snow
1,0.0,0.2,3.8,北東,,0,17
2,0.0,0.1,5.1,北,,0,17
3,0.0,0.1,2.6,北北西,,0,17
4,0.0,-0.2,2.4,北東,,0,17
5,0.0,-0.6,2.2,北東,,0,17
6,0.0,-0.7,2.3,北北東,,0,17
7,0.0,-0.9,1.4,北,0.0,0,17
8,0.0,-1.3,1.1,北,0.0,1,18
9,0.0,-0.7,1.8,北,0.0,0,18
10,0.0,0.3,1.4,北,0.5,0,18
11,0.0,0.2,1.5,北北西,0.4,0,18
12,0.0,1.3,2.1,北北西,0.9,0,18
13,0.0,1.4,2.2,南西,0.8,0,18
14,0.0,0.4,1.4,北北東,0.2,0,18
15,0.0,0.5,1.6,北,0.1,0,18
16,0.0,0.1,1.3,南西,0.1,0,18
17,0.0,-0.2,2.6,北北東,0.0,0,18
18,0.0,-1.4,1.5,北東,,0,18
19,0.0,-0.8,2.1,北東,,0,18
20,0.0,-0.9,1.5,東北東,,0,18
21,0.0,-0.8,1.9,北東,,0,18
22,0.0,-1.4,1.6,北北東,,0,18
23,0.0,-0.5,1.7,北東,,0,18
24,0.0,-1.0,1.7,東,,1,19
