hour,precipitation,temperature,wind_velocity,wind_direction,hours_of_sunlight,snowfall,snow
1,0.0,-4.2,4.4,西,,,
2,0.0,-4.5,1.8,西北西,,,
3,0.0,-4.9,1.2,南南西,,,
4,0.0,-5.2,1.2,東南東,,,
5,0.0,-5.3,2.8,南,,,
6,0.0,-6.1,2.4,西,,,
7,0.0,-5.9,3.0,西,0.0,,
8,0.0,-5.4,1.6,南西,0.0,,
9,0.0,-4.9,3.2,南,0.0,,
10,0.0,-5.2,1.8,西南西,0.4,,
11,0.0,-4.4,2.5,西,0.8,,
12,0.0,-3.9,1.6,北北西,0.6,,
13,0.0,-4.4,1.6,北北東,0.0,,
14,0.5,-5.1,2.1,西,0.0,,
15,0.0,-5.3,1.4,北北東,0.0,,
16,0.0,-5.6,2.3,西,0.0,,
17,0.0,-6.0,3.7,西,0.0,,
18,0.0,-6.6,3.8,西南西,,,
19,0.0,-7.2,2.6,西,,,
20,0.0,-7.4,1.7,南,,,
21,0.0,-7.7,2.1,南,,,
22,0.0,-7.8,3.7,南南東,,,
23,0.0,-8.0,4.1,南南東,,,
24,0.0,-8.5,2.2,南南東,,,
