hour,precipitation,temperature,wind_velocity,wind_direction,hours_of_sunlight,snowfall,snow
1,0.0,-1.0,1.7,北東,,0,19
2,0.0,-0.8,1.0,東,,0,19
3,1.0,-1.9,1.1,南南西,,3,22
4,0.0,-0.6,2.3,北東,,0,22
5,0.0,-0.3,3.6,北東,,0,22
6,0.0,-0.5,2.9,北東,,0,22
7,0.0,-0.6,1.6,東,0.0,0,22
8,0.0,-0.6,2.1,北東,0.0,0,22
9,0.0,-0.6,2.1,北東,0.0,0,22
10,0.0,0.0,1.3,北東,0.1,0,22
11,0.0,1.4,2.5,北,0.8,0,21
12,0.0,1.0,2.8,北,0.8,0,20
13,0.0,1.0,3.0,北東,0.3,0,19
14,0.0,1.4,2.4,北東,0.3,0,19
15,0.0,1.1,2.2,東北東,0.1,0,19
16,0.0,0.7,2.3,北東,0.0,0,19
17,0.0,0.5,1.8,北北東,0.0,0,19
18,0.0,0.4,1.9,北東,,0,18
19,0.0,-0.4,0.9,東北東,,0,18
20,0.0,-2.6,0.7,北北東,,0,18
21,0.0,-3.5,0.7,西,,0,18
22,0.0,-4.3,0.0,静穏,,0,18
23,0.0,-5.0,0.4,北,,0,18
24,0.0,-5.7,0.1,静穏,,0,18
