hour,precipitation,temperature,wind_velocity,wind_direction,hours_of_sunlight,snowfall,snow
1,0.0,-2.6,0.8,西,,,
2,0.0,-1.8,0.8,西南西,,,
3,0.0,-1.9,0.6,西,,,
4,0.0,-0.8,1.2,南南東,,,
5,0.0,-1.5,1.1,南,,,
6,0.0,-1.9,1.0,南南東,,,
7,0.0,-1.9,1.0,南南西,,,
8,0.0,-0.1,1.5,南南西,,,
9,0.0,2.8,1.8,南南西,,,
10,0.0,3.8,1.5,南西,,,
11,0.0,4.8,0.9,南西,,,
12,0.0,5.5,3.2,東,,,
13,0.0,6.0,2.9,東,,,
14,0.0,6.1,3.0,東,,,
15,0.0,6.7,1.9,東南東,,,
16,0.0,5.2,3.0,南南東,,,
17,0.0,4.1,1.2,南南東,,,
18,0.0,3.0,0.1,静穏,,,
19,0.0,2.2,0.8,南南西,,,
20,0.0,1.7,1.8,南,,,
21,0.0,2.1,1.0,南南西,,,
22,0.0,0.0,0.5,西,,,
23,0.0,-0.9,0.5,西,,,
24,0.0,0.4,0.8,北西,,,
