hour,precipitation,temperature,wind_velocity,wind_direction,hours_of_sunlight,snowfall,snow
1,0.0,0.4,1.0,西北西,,,
2,0.0,1.1,1.1,東北東,,,
3,0.0,0.2,1.6,西北西,,,
4,0.0,-0.5,0.5,西,,,
5,0.0,1.0,2.1,北西,,,
6,0.0,-0.6,0.3,西南西,,,
7,0.0,3.2,1.5,南西,,,
8,0.0,3.6,3.3,西北西,,,
9,0.0,4.6,3.3,西北西,,,
10,0.0,6.4,2.7,北西,,,
11,0.0,6.9,2.4,北北西,,,
12,0.0,8.1,2.9,北西,,,
13,0.0,8.5,2.9,西北西,,,
14,0.0,7.6,3.5,西北西,,,
15,0.0,6.3,3.5,北西,,,
16,0.0,5.1,2.3,北北西,,,
17,0.0,3.8,2.0,西,,,
18,0.0,3.7,3.6,西,,,
19,0.0,2.4,1.8,北東,,,
20,0.0,1.5,2.5,北北西,,,
21,0.0,0.4,0.9,南,,,
22,0.0,-1.2,0.6,西北西,,,
23,0.0,-0.7,1.1,西北西,,,
24,0.0,-0.5,0.2,静穏,,,
