hour,precipitation,temperature,wind_velocity,wind_direction,hours_of_sunlight,snowfall,snow
1,0.0,-0.2,3.0,北北西,,,
2,0.0,-2.3,0.3,東,,,
3,0.0,-1.4,0.9,北西,,,
4,0.0,0.9,3.2,北,,,
5,0.0,-1.1,0.3,北北西,,,
6,0.0,-2.0,0.3,東南東,,,
7,0.0,3.9,5.2,北北西,0.0,,
8,0.0,3.1,0.8,北,0.6,,
9,0.0,6.6,3.3,北北東,1.0,,
10,0.0,8.0,6.6,北西,1.0,,
11,0.0,8.5,3.9,北北西,1.0,,
12,0.0,9.5,4.1,北西,1.0,,
13,0.0,9.5,4.7,北西,1.0,,
14,0.0,9.6,4.4,北北西,1.0,,
15,0.0,8.5,7.2,北北西,1.0,,
16,0.0,7.1,4.2,北北西,0.8,,
17,0.0,5.3,3.5,北北西,0.0,,
18,0.0,4.0,1.7,北西,,,
19,0.0,4.0,2.7,北北西,,,
20,0.0,4.1,2.7,北北西,,,
21,0.0,4.0,4.5,北北西,,,
22,0.0,3.9,2.0,北北東,,,
23,0.0,3.7,2.3,北,,,
24,0.0,3.6,1.7,北,,,
