hour,precipitation,temperature,wind_velocity,wind_direction,hours_of_sunlight,snowfall,snow
1,0.0,1.8,1.6,西北西,,,
2,0.0,2.1,2.2,西北西,,,
3,0.0,2.0,2.3,北西,,,
4,0.0,1.4,0.4,北西,,,
5,0.0,1.2,0.9,北,,,
6,0.0,1.0,1.0,西北西,,,
7,0.0,0.3,0.5,北西,0.0,,
8,0.0,1.5,1.0,北北東,0.5,,
9,0.0,2.7,7.0,西北西,1.0,,
10,0.0,4.2,3.8,北西,1.0,,
11,0.0,4.5,3.4,北西,1.0,,
12,0.0,2.7,5.5,西北西,0.8,,
13,0.0,4.3,2.3,北西,0.7,,
14,0.0,4.7,3.6,西北西,0.9,,
15,0.0,4.0,3.6,北西,1.0,,
16,0.0,2.7,3.7,西北西,1.0,,
17,0.0,1.3,4.3,西北西,0.4,,
18,0.0,0.6,3.8,西北西,,,
19,0.0,0.2,3.1,西北西,,,
20,0.0,-0.4,0.7,北北東,,,
21,0.0,-1.4,0.5,北,,,
22,0.0,-2.2,0.4,北西,,,
23,0.0,-2.8,0.5,北西,,,
24,0.0,-3.2,1.1,西,,,
