hour,precipitation,temperature,wind_velocity,wind_direction,hours_of_sunlight,snowfall,snow
1,0.0,-2.7,2.0,北,,,
2,0.0,-3.3,1.4,北,,,
3,0.0,-3.3,0.8,北北西,,,
4,0.0,-3.3,3.1,北北西,,,
5,0.0,-2.2,3.4,北,,,
6,0.0,-1.3,2.7,北,,,
7,0.0,-0.2,2.2,北,0.0,,
8,0.0,2.2,5.6,北北西,0.6,,
9,0.0,3.7,3.8,北西,1.0,,
10,0.0,5.0,4.0,北,1.0,,
11,0.0,5.7,4.6,北西,1.0,,
12,0.0,6.0,6.9,北北西,1.0,,
13,0.0,6.4,4.9,北,1.0,,
14,0.0,6.8,5.7,北北西,1.0,,
15,0.0,6.3,5.2,北北西,1.0,,
16,0.0,4.9,2.9,北,0.9,,
17,0.0,3.2,2.3,北北西,0.0,,
18,0.0,0.4,0.6,南西,,,
19,0.0,0.9,4.7,北西,,,
20,0.0,1.8,4.7,北北西,,,
21,0.0,-0.3,1.0,北西,,,
22,0.0,0.5,2.2,北北西,,,
23,0.0,1.5,2.4,北北西,,,
24,0.0,-0.9,0.9,南,,,
