stn_id,name,group,lat,lon
487,HARUNASAN,1,36.472,138.873
493,NISHINOMAKI,1,36.245,138.707
680,KARUIZAWA,1,36.342,138.547
685,TATESHINA,1,36.272,138.313
686,SAKU,1,36.247,138.477
687,SHIRAKABAKO,1,36.105,138.228
689,SUWA,1,36.045,138.108
690,KITAAIKI,1,36.072,138.612
691,KAIDAKOGEN,1,35.938,137.602
692,KISOHIRASAWA,1,35.983,137.835
693,TATSUNO,1,35.982,137.983
694,TAKATO,1,35.953,138.108
695,HARAMURA,1,35.97,138.22
696,NOBEYAMA,1,35.948,138.472
697,ONTAKESAN,1,35.872,137.503
698,KISOFUKUSHIMA,1,35.84,137.688
699,INA,1,35.827,137.953
700,MIYATAKOGEN,1,35.773,137.885
702,SUHARA,1,35.698,137.692
723,HAGIWARA,1,35.888,137.207
724,SEKISHIITADORI,1,35.723,136.783
725,HACHIMAN,1,35.757,136.978
726,MIYAJI,1,35.763,137.288
727,TARUMI,1,35.638,136.603
728,KANAYAMA,1,35.662,137.16
729,TSUKECHI,1,35.662,137.427
730,MINO,1,35.555,136.91
732,KUROKAWA,1,35.598,137.318
733,IBIGAWA,1,35.485,136.567
737,SEKIGAHARA,1,35.363,136.467
738,OGAKI,1,35.347,136.62
739,GIFU,1,35.4,136.762
741,KAMIISHIZU,1,35.295,136.473
814,IMAZU,1,35.412,136.028
815,NAGAHAMA,1,35.423,136.242
816,KUTSUKIHERA,1,35.308,135.83
817,MAIBARA,1,35.383,136.343
818,MINAMIKOMATSU,1,35.235,135.957
819,HIKONE,1,35.275,136.243
830,MUTSUYORI,1,35.382,135.453
831,FUKUCHIYAMA,1,35.312,135.113
832,AYABE,1,35.293,135.258
833,MIWA,1,35.217,135.232
834,HONJO,1,35.26,135.395
835,MIYAMA,1,35.275,135.55
836,SHUCHI,1,35.177,135.42
837,SONOBE,1,35.108,135.455
838,KEIHOKU,1,35.182,135.662
860,IKUNO,1,35.167,134.792
861,KAIBARA,1,35.137,135.065
862,SAYO,1,35.017,134.368
863,ICHINOMIYA,1,35.097,134.585
864,FUKUSAKI,1,34.95,134.748
865,NISHIWAKI,1,34.998,134.997
866,SHITSUKAWA,1,35.025,135.293
956,NAGI,1,35.112,134.17
957,IMAOKA,1,35.098,134.325
958,KUSE,1,35.068,133.753
959,TSUYAMA,1,35.063,134.008
545,KOZUSHIMA,2,34.188,139.133
547,MIYAKETSUBOTA,2,34.073,139.56
548,YAEMIGAHARA,2,33.115,139.785
549,HACHIJOJIMA,2,33.122,139.778
812,MIHAMA,2,33.852,135.98
901,HONGU,2,33.837,135.773
902,KURISUGAWA,2,33.792,135.513
903,SHINGU,2,33.687,135.97
904,NANKISHIRAHAMA,2,33.662,135.363
905,NISHIKAWA,2,33.638,135.71
906,IROKAWA,2,33.675,135.848
907,HIKIGAWA,2,33.605,135.48
908,SHIONOMISAKI,2,33.45,135.757
1070,MISHO,2,32.963,132.57
1087,SAKIHAMA,2,33.393,134.205
1089,MUROTOMISAKI,2,33.252,134.177
1092,SAGA,2,33.078,133.102
1093,SUKUMO,2,32.92,132.695
1094,NAKAMURA,2,32.99,132.92
1095,MISAKI,2,32.795,132.872
1096,SHIMIZU,2,32.722,133.01
1170,YUNOMAEYOKOTANI,2,32.263,131.043
1199,HYUGA,2,32.408,131.6
1200,MIKADO,2,32.385,131.332
1201,NISHIMERA,2,32.23,131.152
1202,TSUNO,2,32.283,131.542
1203,TAKANABE,2,32.123,131.527
1204,KAKUTO,2,32.047,130.81
1205,SAITO,2,32.063,131.413
1206,EBINO,2,31.945,130.84
1207,KOBAYASHI,2,32.0,130.953
1208,TAKAHARU,2,31.928,131.007
1209,NOJIRI,2,31.957,131.157
1210,KUNITOMI,2,32.007,131.297
1211,MIYAZAKI,2,31.938,131.413
1212,YAMADA,2,31.813,131.038
1213,AOSHIMA,2,31.803,131.46
1214,AKAE,2,31.877,131.448
1215,MIYAKONOJO,2,31.73,131.082
1216,FUKASE,2,31.637,131.25
1217,ABURATSU,2,31.578,131.407
1218,KUSHIMA,2,31.465,131.22
1221,OKUCHI,2,32.047,130.627
1223,SATSUMAKASHIWABARU,2,31.917,130.455
1225,SENDAI,2,31.833,130.315
1226,MIZOBE,2,31.803,130.718
1227,KIRISHIMAMAKIZONO,2,31.885,130.82
1228,YAEYAMA,2,31.747,130.438
1229,HIGASHIICHIKI,2,31.668,130.328
1230,MAKINOHARA,2,31.662,130.843
1231,KAGOSHIMA,2,31.555,130.547
1232,KIHOKU,2,31.588,130.855
1233,OSUMI,2,31.58,131.005
1234,KASEDA,2,31.415,130.325
1235,YOSHIGABEPPU,2,31.462,130.86
1236,SHIBUSHI,2,31.478,131.095
1237,KIIRE,2,31.387,130.54
1238,KANOYA,2,31.392,130.863
1239,KIMOTSUKIMAEDA,2,31.34,130.938
1240,MAKURAZAKI,2,31.272,130.292
1241,IBUSUKI,2,31.25,130.637
1242,UCHINOURA,2,31.277,131.055
1243,TASHIRO,2,31.198,130.843
1244,SATA,2,31.093,130.69
1245,TANEGASHIMA,2,30.72,130.982
1246,NAKATANE,2,30.605,130.992
1247,KAMINAKA,2,30.407,130.902
1248,YAKUSHIMA,2,30.385,130.658
1249,ONOAIDA,2,30.235,130.555
1250,NAKANOSHIMA,2,29.84,129.867
1251,KASARI,2,28.43,129.712
1252,NAZE,2,28.378,129.495
1253,KIKAIJIMA,2,28.32,129.927
1292,HATERUMA,2,24.055,123.767
1293,SHITAABARU,2,24.058,123.803
1056,MATSUYAMA,3,33.843,132.777
1057,MATSUYAMAMINAMIYOSHIDA,3,33.827,132.698
1058,KAMIHAYASHI,3,33.738,132.89
1059,JOJUSHA,3,33.795,133.132
1060,NAGAHAMA,3,33.617,132.48
1061,NAKAYAMA,3,33.638,132.708
1062,KUMA,3,33.663,132.895
1071,HONGAWA,3,33.765,133.338
1097,MUNAKATA,3,33.808,130.538
1098,YAHATA,3,33.852,130.743
1099,KUKOKITAMACHI,3,33.845,131.035
1100,HIGASHITANI,3,33.778,130.865
1101,YUKUHASHI,3,33.713,130.975
1172,KUNIMI,3,33.675,131.59
1174,BUNGOTAKADA,3,33.57,131.433
412,WAKAMATSU,4,37.488,139.91
420,NANGO,4,37.265,139.537
430,HINOEMATA,4,37.023,139.387
431,TATEIWA,4,37.092,139.532
464,DOROBU,4,36.892,139.568
466,OKUNIKKO,4,36.738,139.5
480,FUJIWARA,4,36.863,139.058
482,KATASHINA,4,36.772,139.238
484,NUMATA,4,36.653,139.06
485,NAKANOJO,4,36.587,138.85
938,FUKUMITSU,4,35.07,132.333
939,AKANA,4,35.002,132.712
941,KAWAMOTO,4,34.977,132.492
954,CHIYA,4,35.103,133.435
977,TAKANO,4,35.033,132.902
978,DOGOYAMA,4,35.057,133.188
1271,TOKASHIKI,4,26.21,127.363
1273,KERAMA,4,26.168,127.293
652,OIZUMI,5,35.862,138.387
653,OTOMEKO,5,35.807,138.655
654,NIRASAKI,5,35.693,138.448
701,SUGISHIMA,5,35.727,138.093
704,IIJIMA,5,35.653,137.898
706,IIDA,5,35.523,137.822
793,HOKUSEI,5,35.143,136.538
820,OMIHACHIMAN,5,35.127,136.097
821,HIGASHIOMI,5,35.062,136.19
822,OTSU,5,34.992,135.912
839,KYOTO,5,35.013,135.732
840,NAGAOKAKYO,5,34.93,135.678
842,NOSE,5,34.948,135.455
843,IBARAKI,5,34.86,135.56
869,SANDA,5,34.895,135.212
870,MIKI,5,34.777,135.013
872,IESHIMA,5,34.672,134.527
873,AKASHI,5,34.687,134.877
950,TSUWANO,5,34.462,131.77
951,YOSHIKA,5,34.392,131.893
971,YAKAGE,5,34.617,133.618
972,OKAYAMA,5,34.66,133.917
973,MUSHIAGE,5,34.682,134.207
974,KURASHIKI,5,34.59,133.768
975,KASAOKA,5,34.502,133.495
976,TAMANO,5,34.487,133.95
993,MIIRI,5,34.545,132.53
996,FUCHU,5,34.562,133.232
997,SAEKIYUKI,5,34.498,132.29
998,SHIWA,5,34.498,132.66
999,HIGASHIHIROSHIMA,5,34.417,132.7
1000,HONGO,5,34.435,132.918
1001,FUKUYAMA,5,34.447,133.247
1002,HATSUKAICHITSUTA,5,34.365,132.19
1003,HIROSHIMA,5,34.398,132.462
1004,TAKEHARA,5,34.33,132.982
1005,IKUCHIJIMA,5,34.278,133.123
1006,OTAKE,5,34.222,132.22
1007,KURE,5,34.24,132.55
1008,KURAHASHI,5,34.092,132.488
1009,KURE-SHI-KAMAGARI,5,34.165,132.748
1011,HAGI,5,34.41,131.405
1012,YUYA,5,34.37,131.055
1013,SHINOBU,5,34.303,131.577
1014,TOKUSA,5,34.398,131.725
1015,RAKANZAN,5,34.35,132.063
1016,AKIYOSHIDAI,5,34.235,131.307
1017,KANO,5,34.225,131.815
1018,HIROSE,5,34.262,131.952
1021,YAMAGUCHI,5,34.162,131.462
1022,WADA,5,34.148,131.735
1023,IWAKUNI,5,34.155,132.178
1025,KUDAMATSU,5,34.02,131.873
1026,KUGA,5,34.095,132.075
1029,YANAI,5,33.958,132.113
1041,UCHINOMI,5,34.472,134.273
1049,OMISHIMA,5,34.25,133.007
525,KYONAN,6,35.122,139.837
526,KAMOGAWA,6,35.112,140.1
528,TATEYAMA,6,34.987,139.865
539,OSHIMA-RINJI,6,34.748,139.362
540,OSHIMAKITANOYAMA,6,34.782,139.36
541,OSHIMA-RINJI,6,34.748,139.362
542,OSHIMASENZU,6,34.778,139.422
543,OSHIMASASHIKIJI,6,34.683,139.413
556,TANZAWAKO,6,35.41,139.043
557,EBINA,6,35.433,139.387
559,HIRATSUKA,6,35.345,139.305
560,TSUJIDO,6,35.32,139.45
561,HAKONE,6,35.222,139.042
562,ODAWARA,6,35.277,139.155
563,MIURA,6,35.178,139.63
664,NAMBU,6,35.288,138.445
742,SHIRAITO,6,35.312,138.578
743,FUJISAN,6,35.36,138.727
745,UMEGASHIMA,6,35.237,138.342
746,GOTEMBA,6,35.305,138.927
747,FUJI,6,35.185,138.663
748,MISHIMA,6,35.113,138.925
752,KAGIANA,6,35.048,138.247
753,SHIMIZU,6,35.053,138.522
754,AJIRO,6,35.045,139.092
756,TAKANESAN,6,34.975,138.197
757,SHIZUOKA,6,34.975,138.403
761,TOI,6,34.877,138.76
762,YUGASHIMA,6,34.9,138.925
763,AMAGISAN,6,34.872,139.023
765,KAKEGAWA,6,34.78,137.967
766,KIKUGAWAMAKINOHARA,6,34.785,138.14
767,SHIZUOKA-KUKO,6,34.795,138.188
768,MATSUZAKI,6,34.755,138.783
769,INATORI,6,34.782,139.048
770,IWATA,6,34.692,137.88
771,OMAEZAKI,6,34.603,138.212
772,IROZAKI,6,34.603,138.842
1255,AMAGI,6,27.835,128.88
1257,OKINOERABU,6,27.432,128.705
1258,YORONJIMA,6,27.043,128.402
1260,OKU,6,26.835,128.272
1261,KUNIGAMI,6,26.728,128.178
1262,MOTOBU,6,26.685,127.898
1263,HIGASHI,6,26.632,128.153
1265,NAGO,6,26.593,127.965
1266,YOMITAN,6,26.405,127.742
1269,GOYA,6,26.327,127.805
1270,MIYAGIJIMA,6,26.363,127.972
1272,NAHA,6,26.207,127.687
1274,ASHIMINE,6,26.195,127.645
1275,ITOKAZU,6,26.153,127.765
1090,EKAWASAKI,7,33.17,132.792
1091,TAISHO,7,33.193,132.972
1140,UNZENDAKE,7,32.737,130.262
1141,SHIMABARA,7,32.742,130.375
1144,KUCHINOTSU,7,32.612,130.193
1145,NOMOZAKI,7,32.578,129.74
1151,KUMAMOTO,7,32.813,130.707
1152,MASHIKI,7,32.837,130.855
1153,ASOSAN,7,32.88,131.073
1154,TAKAMORI,7,32.822,131.125
1155,UTO,7,32.7,130.657
1156,YAMATO,7,32.712,130.958
1157,MISUMI,7,32.612,130.478
1158,KOSA,7,32.645,130.81
1159,MATSUSHIMA,7,32.515,130.447
1160,HONDO,7,32.468,130.18
1161,YATSUSHIRO,7,32.473,130.607
1162,TANOURA,7,32.363,130.508
1163,YAMAE,7,32.302,130.747
1164,ITSUKI,7,32.395,130.827
1165,MINAMATA,7,32.205,130.407
1166,ISSHOCHI,7,32.245,130.645
1167,HITOYOSHI,7,32.217,130.755
1168,UE,7,32.225,130.905
1169,TARAGI,7,32.295,130.95
1171,USHIBUKA,7,32.197,130.027
1188,SAIKI,7,32.95,131.902
1189,UME,7,32.845,131.675
1190,KAMAE,7,32.795,131.923
1191,TAKACHIHO,7,32.712,131.29
1192,FURUE,7,32.712,131.82
1193,KURAOKA,7,32.643,131.157
1194,HINOKAGE,7,32.682,131.407
1195,MOROTSUKA,7,32.517,131.335
1196,KITAKATA,7,32.562,131.525
1197,NOBEOKA,7,32.582,131.657
1198,SHIIBA,7,32.475,131.103
1219,AKUNE,7,32.027,130.2
1220,IZUMI,7,32.093,130.352
1222,SHIBISAN,7,31.98,130.367
1224,NAKAKOSHIKI,7,31.835,129.867
1,SOYAMISAKI,8,45.52,141.935
2,WAKKANAI,8,45.415,141.678
4,KOETOI,8,45.403,141.8
5,HAMAONISHIBETSU,8,45.335,142.17
7,NUMAKAWA,8,45.248,141.852
9,TOYOTOMI,8,45.107,141.765
10,HAMATOMBETSU,8,45.125,142.35
11,NAKATOMBETSU,8,44.965,142.28
12,KITAMIESASHI,8,44.94,142.585
13,UTANOBORI,8,44.842,142.48
14,NAKAGAWA,8,44.828,142.077
15,OTOINEPPU,8,44.727,142.265
16,OGURUMA,8,44.608,142.295
17,BIFUKA,8,44.48,142.342
18,NAYORO,8,44.37,142.457
19,NISHIFUREN,8,44.295,142.358
20,SHIMOKAWA,8,44.302,142.623
21,KENBUCHI,8,44.107,142.353
22,SHIBETSU,8,44.187,142.417
23,ASAHI,8,44.118,142.595
24,WASSAMU,8,44.028,142.41
25,ETAMBETSU,8,43.87,142.26
26,PIPPU,8,43.875,142.48
27,KAMIKAWA,8,43.847,142.753
28,ASAHIKAWA,8,43.757,142.372
29,HIGASHIKAWA,8,43.702,142.508
30,MIZUHO,8,43.737,142.638
31,SOUNKYO,8,43.753,142.93
32,HIGASHIKAGURA,8,43.67,142.447
33,SHIBINAI,8,43.643,142.582
34,BIEI,8,43.588,142.493
35,KAMIFURANO,8,43.455,142.465
36,SHIROGANE,8,43.475,142.648
37,FURANO,8,43.333,142.4
38,ROKUGO,8,43.302,142.522
39,KANAYAMA,8,43.138,142.417
40,IKUTORA,8,43.168,142.568
41,SHIMUKAPPU,8,42.978,142.395
42,HORONOBE,8,45.007,141.852
43,TESHIO,8,44.893,141.762
44,EMBETSU,8,44.718,141.807
45,SHOSAMBETSU,8,44.523,141.77
46,YAGISHIRI,8,44.428,141.422
47,HABORO,8,44.363,141.7
48,KOTAMBETSU,8,44.265,141.722
49,TAPPU,8,44.048,141.857
50,RUMOI,8,43.945,141.632
51,MASHIKE,8,43.848,141.51
52,HORONUKA,8,43.853,141.76
53,HAMAMASU,8,43.582,141.387
54,ATSUTA,8,43.397,141.437
55,SHINSHINOTSU,8,43.22,141.645
56,YAMAGUCHI,8,43.148,141.222
57,ISHIKARI,8,43.193,141.37
58,EBETSU,8,43.11,141.602
59,TEINEYAMA,8,43.083,141.202
60,SAPPORO,8,43.06,141.328
61,KOGANEYU,8,42.963,141.217
62,ENIWASHIMAMATSU,8,42.927,141.565
63,SHIKOTSUKOHAN,8,42.772,141.407
64,CHITOSE,8,42.775,141.692
65,SHUMARINAI,8,44.282,142.162
66,HOROKANAI,8,44.01,142.16
67,ISHIKARINUMATA,8,43.815,141.927
68,FUKAGAWA,8,43.718,142.073
69,URYU,8,43.66,141.892
70,SHINJO,8,43.612,142.203
71,SORACHIYOSHINO,8,43.595,141.732
72,TAKIKAWA,8,43.57,141.938
73,AKABIRA,8,43.553,142.067
74,ASHIBETSU,8,43.517,142.19
75,URAUSU,8,43.428,141.808
76,TSUKIGATA,8,43.33,141.617
77,BIBAI,8,43.363,141.827
78,IWAMIZAWA,8,43.212,141.785
79,KURISAWA,8,43.122,141.745
80,NAGANUMA,8,43.012,141.693
81,YUBARI,8,43.038,141.957
82,KASHIMA,8,43.08,142.1
83,NUMANOSAWA,8,42.96,142.02
84,BIKUNI,8,43.272,140.563
85,KAMOENAI,8,43.145,140.423
86,YOICHI,8,43.182,140.758
87,OTARU,8,43.182,141.015
88,AKAIGAWA,8,43.083,140.82
89,KYOWA,8,42.98,140.603
90,RANKOSHI,8,42.81,140.542
91,KUTCHAN,8,42.9,140.757
92,SUTTSU,8,42.795,140.223
93,NISEKO,8,42.778,140.667
94,MAKKARI,8,42.775,140.88
95,KIMOBETSU,8,42.793,140.948
96,KUROMATSUNAI,8,42.663,140.31
97,OMU,8,44.58,142.963
98,OKOPPE,8,44.47,143.108
99,NISHIOKOPPE,8,44.332,142.937
100,MOMBETSU,8,44.345,143.355
101,MOMBETSUKOMUKAI,8,44.303,143.403
102,YUBETSU,8,44.213,143.618
103,TAKINOUE,8,44.177,143.062
104,KAMIMOBETSU,8,44.188,143.337
106,ENGARU,8,44.053,143.54
107,SAROMA,8,43.983,143.723
110,MARUSEPPU,8,43.952,143.328
111,SHIRATAKI,8,43.865,143.153
112,IKUTAHARA,8,43.917,143.532
113,NIKOROYAMA,8,43.86,143.747
114,KITAMI,8,43.81,143.875
119,RUBESHIBE,8,43.742,143.45
120,SAKAINO,8,43.707,143.643
121,BIHORO,8,43.77,144.172
122,YAMAZONO,8,43.743,144.337
123,OKETOTSUNEMOTO,8,43.62,143.44
124,TSUBETSU,8,43.702,144.033
125,TSUBETSUFUTAMATA,8,43.583,143.865
127,ITOKUSHIBETSU,8,43.722,144.988
128,SHIBETSU,8,43.662,145.132
129,KAMISHIBETSU,8,43.52,144.747
130,NAKASHIBETSU,8,43.543,144.978
131,NEMURONAKASHIBETSU,8,43.577,144.96
132,BETSUKAI,8,43.382,145.118
136,KAWAYU,8,43.617,144.457
137,TESHIKAGA,8,43.51,144.467
138,AKANKOHAN,8,43.437,144.085
139,SHIBECHA,8,43.292,144.587
140,TSURUI,8,43.232,144.325
141,NAKATESHIBETSU,8,43.198,144.142
142,TORO,8,43.148,144.497
143,CHANAIGENYA,8,43.173,144.967
144,SAKAKIMACHI,8,43.12,145.11
145,AKAN,8,43.113,144.123
146,TSURUOKA,8,43.04,144.192
147,OTA,8,43.09,144.778
148,FUTAMATA,8,42.972,143.875
149,SHIRANUKA,8,42.97,144.062
150,KUSHIRO,8,42.985,144.377
151,CHIPPOMANAI,8,42.938,144.735
152,MITSUMATA,8,43.51,143.148
153,SHOTOSHIBETSU,8,43.588,143.68
154,RIKUBETSU,8,43.468,143.738
155,NUKABIRA-GENSENKYO,8,43.367,143.192
156,KASHIWAKURA,8,43.362,143.458
157,KAMIRAWAN,8,43.318,143.802
158,KAMISHIHORO,8,43.235,143.303
159,ASHORO,8,43.243,143.553
160,OSHOPPU,8,43.115,143.443
161,HOMBETSU,8,43.132,143.6
162,SHINTOKU,8,43.077,142.84
163,SHIKAOI,8,43.103,142.995
164,KOMABA,8,43.05,143.183
165,MEMURO,8,42.9,143.043
166,OBIHIRO,8,42.922,143.212
167,IKEDA,8,42.92,143.458
168,RUSHIN,8,42.917,143.662
169,URAHORO,8,42.808,143.657
170,OBIHIROIZUMI,8,42.733,143.217
171,NUKANAI,8,42.787,143.328
172,KAMISATSUNAI,8,42.642,143.097
173,SARABETSU,8,42.652,143.195
174,OTSU,8,42.685,143.647
175,TAIKI,8,42.5,143.273
176,HIROO,8,42.293,143.317
177,ABIRA,8,42.813,141.828
178,ATSUMA,8,42.73,141.888
179,HOBETSU,8,42.762,142.143
182,TOMAKOMAI,8,42.623,141.547
183,OKISHI,8,42.59,140.643
187,MUKAWA,8,42.59,141.933
191,HIDAKA,8,42.877,142.442
192,NISEU,8,42.772,142.358
193,ASAHI,8,42.628,142.393
194,HIDAKAMOMBETSU,8,42.522,142.037
195,SHINWA,8,42.543,142.333
196,SASAYAMA,8,42.433,142.482
197,SHIZUNAI,8,42.343,142.362
198,MITSUISHI,8,42.245,142.662
199,NAKAKINEUSU,8,42.223,142.948
200,URAKAWA,8,42.162,142.777
201,MEGURO,8,42.127,143.313
202,HOROMAN,8,42.077,143.035
203,ERIMOMISAKI,8,41.925,143.243
204,OSHAMAMBE,8,42.523,140.382
217,SETANA,8,42.45,139.852
218,IMAKANE,8,42.428,140.008
219,OKUSHIRI,8,42.248,139.557
221,YONEOKA,8,42.072,139.432
1267,KITAHARA,8,26.363,126.713
1268,KUMEJIMA,8,26.337,126.803
1276,KITADAITO,8,25.943,131.327
1277,MINAMIDAITO,8,25.828,131.227
1278,KYUTO,8,25.847,131.263
896,YUASA,9,34.035,135.182
1036,FUKUHARAASAHI,9,33.878,134.388
1038,KITO,9,33.772,134.205
1068,UWAJIMA,9,33.227,132.552
1069,CHIKANAGA,9,33.253,132.675
1073,IKEGAWA,9,33.608,133.168
1074,SHIGETO,9,33.678,133.685
1075,ODOCHI,9,33.698,133.875
1077,SAKAWA,9,33.512,133.272
1078,KOCHI,9,33.567,133.548
1079,GOMEN,9,33.59,133.643
1080,NANKOKUNISHO,9,33.545,133.668
1081,FUNATO,9,33.417,133.088
1082,TORIGATAYAMA,9,33.48,133.083
1085,YUSUHARA,9,33.39,132.922
552,MINAMITORISHIMA,10,24.288,153.983
469,ASHIO,11,36.647,139.448
488,MAEBASHI,11,36.405,139.06
489,KUROHONE,11,36.502,139.283
490,KIRYU,11,36.383,139.345
491,KAMISATOMI,11,36.377,138.895
492,ISESAKI,11,36.332,139.165
494,FUJIOKA,11,36.242,139.07
496,KANNA,11,36.108,138.897
499,KAMIYOSHIDA,11,36.053,138.98
867,KAMIGORI,11,34.858,134.373
868,HIMEJI,11,34.838,134.67
940,SAKURAE,11,34.953,132.333
942,HAMADA,11,34.897,132.07
943,MIZUHO,11,34.853,132.53
944,MISUMI,11,34.788,131.958
945,YASAKA,11,34.777,132.108
946,HAZA,11,34.78,132.197
947,TAKATSU,11,34.675,131.79
948,MASUDA,11,34.677,131.843
949,HIKIMI,11,34.572,132.017
960,NIIMI,11,34.943,133.518
961,SHIMOAZAE,11,34.965,133.628
962,ASAHINISHI,11,34.962,133.812
963,AKAIWA,11,34.918,134.082
964,JINYAMA,11,34.828,133.523
965,KIBICHUO,11,34.817,133.705
966,FUKUWATARI,11,34.867,133.903
967,WAKE,11,34.815,134.183
968,TAKAHASHI,11,34.792,133.61
969,NICHIOJI,11,34.757,133.855
970,SAYA,11,34.685,133.445
979,KIMITA,11,34.928,132.83
980,MIYOSHI,11,34.812,132.85
981,SHOBARA,11,34.86,133.023
982,TOJO,11,34.895,133.277
983,YAWATA,11,34.708,132.173
984,OASA,11,34.768,132.463
985,MIDORI,11,34.722,132.655
986,YUKI,11,34.763,133.278
987,ODOMARI,11,34.698,132.312
988,KAKE,11,34.61,132.32
989,TSUSHIMI,11,34.647,132.443
990,KODA,11,34.695,132.76
991,JOGE,11,34.693,133.117
992,UCHIGUROYAMA,11,34.597,132.177
994,ASUKA,11,34.567,132.838
995,SERA,11,34.583,133.05
1010,SUSA,11,34.615,131.623
1259,IZENA,11,26.948,127.94
1063,OZU,12,33.508,132.535
1064,SHISHIGOETOGE,12,33.543,132.832
1065,SETO,12,33.447,132.257
1066,YAWATAHAMA,12,33.448,132.433
1067,UWA,12,33.367,132.503
1102,IIZUKA,12,33.652,130.693
1103,MAEBARU,12,33.56,130.19
1104,FUKUOKA,12,33.582,130.375
1105,HAKATA,12,33.583,130.452
1106,DAZAIFU,12,33.513,130.5
1107,SOEDA,12,33.558,130.855
1108,SAWARAWAKIYAMA,12,33.488,130.353
1109,ASAKURA,12,33.405,130.695
1110,HIKOSAN,12,33.488,130.923
1111,KURUME,12,33.303,130.493
1112,MINOSAN,12,33.292,130.625
1113,KUROGI,12,33.225,130.645
1114,YANAGAWA,12,33.16,130.403
1115,OMUTA,12,33.007,130.467
1116,KARATSU,12,33.458,129.955
1117,HOKUZAN,12,33.413,130.22
1118,TOSU,12,33.385,130.517
1119,IMARI,12,33.267,129.878
1120,SAGA,12,33.265,130.305
1121,URESHINO,12,33.117,129.995
1122,SHIROISHI,12,33.183,130.148
1123,KAWASOE,12,33.148,130.302
1124,WANIURA,12,34.698,129.445
1125,IZUHARA,12,34.197,129.292
1126,MITSUSHIMA,12,34.285,129.33
1127,ASHIBE,12,33.8,129.722
1128,ISHIDA,12,33.748,129.785
1129,HIRADO,12,33.36,129.55
1130,MATSUURA,12,33.342,129.712
1131,OJIKA,12,33.19,129.09
1132,SASEBO,12,33.158,129.727
1133,KASHIRAGASHIMA,12,33.013,129.192
1134,ARIKAWA,12,32.982,129.118
1135,OSETO,12,32.948,129.632
1136,NAGAURADAKE,12,32.908,129.738
1137,OMURA,12,32.917,129.913
1138,ISAHAYA,12,32.843,130.025
1139,NAGASAKI,12,32.733,129.867
1142,FUKUE,12,32.693,128.827
1143,KAMIOZU,12,32.665,128.832
1146,KAHOKU,12,33.115,130.692
1147,MINAMIOGUNI,12,33.103,131.067
1148,TAIMEI,12,32.915,130.512
1149,KIKUCHI,12,32.945,130.782
1150,ASOOTOHIME,12,32.94,131.04
1173,NAKATSU,12,33.587,131.245
1175,YABAKEI,12,33.445,131.115
1176,INNAI,12,33.42,131.317
1177,KITSUKI,12,33.417,131.597
1178,MUSASHI,12,33.478,131.737
1179,HITA,12,33.322,130.928
1180,KUSU,12,33.292,131.155
1181,YUFUIN,12,33.253,131.347
1182,OITA,12,33.235,131.618
1183,SAGANOSEKI,12,33.248,131.865
1184,TSUBAKIGAHANA,12,33.19,130.915
1185,USUKI,12,33.132,131.797
1186,INUKAI,12,33.065,131.632
1187,TAKETA,12,32.973,131.398
544,NIIJIMA,13,34.368,139.268
546,MIYAKEJIMA,13,34.123,139.522
806,MINAMIISE,13,34.345,136.682
807,AGO,13,34.328,136.832
809,KIINAGASHIMA,13,34.208,136.327
810,OWASE,13,34.068,136.193
811,KUMANOATASHIKA,13,33.932,136.138
888,KAMIKITAYAMA,13,34.137,136.005
889,KAZEYA,13,34.045,135.787
890,TAMAKIYAMA,13,33.927,135.83
897,SHIMIZU,13,34.087,135.425
898,GOMADANZAN,13,34.04,135.567
899,RYUJIN,13,33.945,135.557
900,KAWABE,13,33.893,135.217
1037,GAMODA,13,33.837,134.742
1039,HIWASA,13,33.732,134.538
1040,KAIYO,13,33.612,134.355
1076,YANASE,13,33.615,134.108
1083,AKI,13,33.488,133.933
1084,TANO,13,33.427,134.007
1086,SUSAKI,13,33.385,133.277
1088,KUBOKAWA,13,33.207,133.128
1254,KONIYA,13,28.143,129.315
1256,ISEN,13,27.677,128.973
1282,GUSUKUBE,13,24.743,125.41
481,MINAKAMI,14,36.8,138.992
483,KUSATSU,14,36.617,138.592
486,TASHIRO,14,36.463,138.463
605,YUZAWA,14,36.942,138.81
646,KUZURYU,14,35.905,136.67
647,IMAJO,14,35.767,136.2
648,TSURUGA,14,35.653,136.062
649,MIHAMA,14,35.6,135.917
650,OI,14,35.48,135.617
651,OBAMA,14,35.483,135.782
672,KASADAKE,14,36.667,138.457
675,SUGADAIRA,14,36.532,138.325
676,HIJIRIKOGEN,14,36.487,138.068
677,UEDA,14,36.4,138.265
678,HOTAKA,14,36.343,137.882
679,TOMI,14,36.383,138.383
681,KAMIKOCHI,14,36.248,137.633
682,MATSUMOTO,14,36.247,137.97
683,MATSUMOTOIMAI,14,36.167,137.922
684,KAKEYU,14,36.302,138.137
688,NAGAWA,14,36.088,137.683
713,TOCHIO,14,36.248,137.503
716,TAKAYAMA,14,36.155,137.253
717,NYUKAWA,14,36.187,137.372
718,HIRUGANO,14,36.01,136.893
719,MUMAYA,14,36.06,137.035
720,FUNAYAMA,14,36.035,137.26
721,MIYANOMAE,14,36.015,137.388
722,NAGATAKI,14,35.923,136.832
813,YANAGASE,14,35.582,136.188
826,MINEYAMA,14,35.618,135.072
827,MIYAZU,14,35.55,135.235
828,SAKAURA,14,35.418,135.087
829,MAIZURU,14,35.45,135.317
854,ONSEN,14,35.528,134.48
855,TOYOOKA,14,35.535,134.822
856,UWANOKOGEN,14,35.432,134.583
857,OYA,14,35.332,134.665
858,YOKA,14,35.398,134.74
859,WADAYAMA,14,35.323,134.848
914,YONAGO,14,35.433,133.338
916,SHIKANO,14,35.413,134.017
917,TOTTORI,14,35.487,134.238
918,DAISEN,14,35.393,133.537
919,SEKIGANE,14,35.378,133.757
920,SAJI,14,35.328,134.113
921,WAKASA,14,35.333,134.405
922,EBI,14,35.288,133.483
923,CHIZU,14,35.263,134.24
924,CYAYA,14,35.187,133.23
929,HIKAWA,14,35.413,132.89
931,IZUMO,14,35.332,132.73
932,DAITO,14,35.318,132.965
933,HAKUTA,14,35.35,133.273
934,SADA,14,35.222,132.723
935,ODA,14,35.19,132.497
936,KAKEYA,14,35.197,132.815
937,YOKOTA,14,35.173,133.103
952,KAMINAGATA,14,35.297,133.725
953,OMBARA,14,35.3,133.987
955,TOMI,14,35.178,133.805
1287,KABIRA,14,24.467,124.14
655,KOFU,15,35.667,138.553
656,KATSUNUMA,15,35.663,138.725
657,OTSUKI,15,35.608,138.938
658,UENOHARA,15,35.622,139.113
659,FUJIKAWA,15,35.562,138.448
660,FURUSEKI,15,35.528,138.615
661,KIRIISHI,15,35.467,138.442
662,KAWAGUCHIKO,15,35.5,138.76
663,YAMANAKA,15,35.437,138.837
705,OSHIKA,15,35.557,138.04
707,NAMIAI,15,35.373,137.692
708,ANAN,15,35.313,137.812
709,MINAMISHINANO,15,35.322,137.932
775,OBARA,15,35.228,137.285
778,KANIE,15,35.137,136.792
779,NAGOYA,15,35.167,136.965
794,KUWANA,15,35.05,136.693
823,SHIGARAKI,15,34.913,136.08
824,TSUCHIYAMA,15,34.938,136.278
841,KYOTANABE,15,34.83,135.76
844,HIRAKATA,15,34.808,135.672
845,TOYONAKA,15,34.783,135.438
846,OSAKA,15,34.682,135.518
847,IKOMAYAMA,15,34.675,135.677
871,NISHINOMIYA,15,34.75,135.335
874,KOBEKUKO,15,34.632,135.223
875,KOBE,15,34.697,135.212
876,GUNGE,15,34.467,134.848
1030,AGENOSHO,15,33.903,132.293
1031,IKEDA,15,34.023,133.797
1042,TAKAMATSU,15,34.317,134.053
1043,TADOTSU,15,34.275,133.752
1044,TAKINOMIYA,15,34.237,133.923
1045,KONAN,15,34.213,134.015
1046,HIKETA,15,34.213,134.407
1047,SAITA,15,34.12,133.772
1048,RYUOZAN,15,34.113,134.05
1050,TAMAGAWA,15,34.018,132.94
1051,IMABARI,15,34.053,132.975
1052,SAIJO,15,33.915,133.08
1053,NIIHAMA,15,33.96,133.282
1054,SHIKOKU-CHUO,15,33.982,133.582
495,TATEBAYASHI,16,36.233,139.532
497,YORII,16,36.105,139.183
498,KUMAGAYA,16,36.15,139.38
500,KONOSU,16,36.065,139.522
501,KUKI,16,36.087,139.635
502,MITSUMINE,16,35.927,138.923
503,CHICHIBU,16,35.99,139.073
504,URAYAMA,16,35.92,139.07
505,TOKIGAWA,16,35.99,139.207
506,HATOYAMA,16,35.985,139.335
507,HANNO,16,35.838,139.322
508,SAITAMA,16,35.875,139.587
509,KOSHIGAYA,16,35.883,139.757
510,TOKOROZAWA,16,35.773,139.413
521,KISARAZU,16,35.362,139.94
523,SAKAHATA,16,35.235,140.098
529,OGOCHI,16,35.792,139.05
530,OZAWA,16,35.735,139.123
531,OME,16,35.788,139.312
532,NERIMA,16,35.738,139.592
533,HACHIOJI,16,35.667,139.317
534,FUCHU,16,35.683,139.483
535,SETAGAYA,16,35.627,139.62
536,TOKYO,16,35.69,139.76
537,EDOGAWA-RINKAI,16,35.638,139.863
538,HANEDA,16,35.553,139.78
553,SAGAMIKO,16,35.613,139.193
554,SAGAMIHARACHUO,16,35.572,139.37
555,HIYOSHI,16,35.552,139.65
558,YOKOHAMA,16,35.438,139.652
703,NAGISO,17,35.61,137.62
731,GARAN,17,35.515,137.23
734,MINOKAMO,17,35.445,137.005
735,ENA,17,35.447,137.403
736,NAKATSUGAWA,17,35.477,137.487
740,TAJIMI,17,35.347,137.108
773,ICHINOMIYA,17,35.298,136.853
774,AISAI,17,35.217,136.698
1019,TOYOTA,17,34.187,131.077
1020,HIGASHIATSU,17,34.118,131.182
1024,HOFU,17,34.04,131.533
1027,SHIMONOSEKI,17,33.948,130.925
1028,UBE,17,33.93,131.278
242,FUKAURA,18,40.645,139.932
333,HACHIMORI,18,40.388,139.982
337,NOSHIRO,18,40.198,140.032
344,OGASHINZAN,18,39.938,139.782
345,OGA,18,39.912,139.9
346,OGATA,18,40.0,139.95
347,GOJOME,18,39.938,140.115
351,AKITA,18,39.717,140.098
353,NIBETSU,18,39.8,140.217
355,YUWA,18,39.615,140.218
360,HONJO,18,39.36,140.055
363,NIKAHO,18,39.255,139.913
364,YASHIMA,18,39.235,140.137
369,TOBISHIMA,18,39.183,139.543
370,SAKATA,18,38.908,139.843
371,KAMIKUSATSU,18,38.995,140.028
373,HAMANAKA,18,38.812,139.787
375,TSURUOKA,18,38.735,139.828
376,KARIKAWA,18,38.8,139.973
380,KUSHIBIKI,18,38.672,139.848
383,NEZUGASEKI,18,38.567,139.552
384,ARASAWA,18,38.507,139.782
564,AWASHIMA,18,38.462,139.252
565,HAGIKIZAKI,18,38.33,138.512
566,TAKANE,18,38.33,139.605
567,MURAKAMI,18,38.227,139.478
568,MIOMOTE,18,38.247,139.605
569,AIKAWA,18,38.028,138.24
570,RYOTSU,18,38.073,138.44
571,AKITSU,18,38.06,138.413
572,NAKAJO,18,38.06,139.408
573,SHIMOSEKI,18,38.092,139.563
574,NIIGATA,18,37.893,139.018
575,MATSUHAMA,18,37.955,139.112
576,HAMOCHI,18,37.842,138.313
577,NIITSU,18,37.792,139.087
578,AKADANI,18,37.835,139.415
579,MAKI,18,37.768,138.913
580,TERADOMARI,18,37.64,138.767
581,SANJO,18,37.64,138.955
582,MURAMATSU,18,37.697,139.188
584,MIYAYORIKAMI,18,37.58,139.14
586,NAGAOKA,18,37.45,138.823
587,TOCHIO,18,37.475,138.992
588,KASHIWAZAKI,18,37.352,138.553
589,IRIHIROSE,18,37.357,139.072
590,OGATA,18,37.225,138.325
591,OGUNI,18,37.292,138.702
592,KOIDE,18,37.238,138.962
593,OYU,18,37.205,139.062
594,TAKADA,18,37.107,138.247
595,YASUZUKA,18,37.107,138.457
596,KAWADANI,18,37.2,138.517
597,MATSUDAI,18,37.132,138.607
598,TOKAMACHI,18,37.143,138.727
599,ITOIGAWA,18,37.043,137.875
600,NO,18,37.083,138.023
601,DOGATA,18,37.03,138.343
602,SHIOZAWA,18,37.038,138.847
603,SEKIYAMA,18,36.933,138.222
604,TSUNAN,18,36.997,138.683
606,HIRAIWA,18,36.887,137.863
607,TARUMOTO,18,36.89,138.275
608,TOMARI,18,36.952,137.552
609,HIMI,18,36.863,136.96
610,UOZU,18,36.822,137.428
611,UNAZUKI,18,36.847,137.557
612,FUSHIKI,18,36.792,137.055
613,TOYAMA,18,36.708,137.202
614,TONAMI,18,36.61,136.955
615,AKIGASHIMA,18,36.648,137.187
616,OYAMA,18,36.608,137.283
617,KAMIICHI,18,36.67,137.423
618,NANTOTAKAMIYA,18,36.545,136.872
619,YATSUO,18,36.578,137.132
620,TATEYAMAASHIKURA,18,36.577,137.385
621,GOKAYAMA,18,36.43,136.942
622,INOTANI,18,36.473,137.237
623,SUZU,18,37.447,137.287
624,WAJIMA,18,37.39,136.895
625,MONZEN,18,37.262,136.728
626,MII,18,37.293,136.962
627,SHIKA,18,37.143,136.725
628,NANAO,18,37.03,136.992
629,HAKUI,18,36.893,136.777
630,KAHOKU,18,36.712,136.692
631,HOUDATSUSHIMIZU,18,36.788,136.768
632,KANAZAWA,18,36.588,136.633
633,IOZEN,18,36.52,136.745
634,KOMATSU,18,36.382,136.435
635,HAKUSANYOSHINO,18,36.362,136.613
636,KAGA-SUGATANI,18,36.23,136.362
637,HAKUSANSHIRAMINE,18,36.18,136.625
638,MIKUNI,18,36.243,136.173
639,HARUE,18,36.142,136.223
640,KOSHINO,18,36.012,135.99
641,FUKUI,18,36.055,136.222
642,MIYAMA,18,35.998,136.358
643,KATSUYAMA,18,36.038,136.522
644,TAKEFU,18,35.905,136.173
645,ONO,18,35.972,136.497
665,NOZAWAONSEN,18,36.912,138.442
666,SHINANOMACHI,18,36.808,138.197
667,IIYAMA,18,36.875,138.375
668,OTARI,18,36.822,137.93
669,HAKUBA,18,36.698,137.862
670,KINASA,18,36.688,137.965
671,NAGANO,18,36.662,138.192
673,OMACHI,18,36.523,137.833
674,SHINSHUSHIMMACHI,18,36.548,137.997
710,KAWAI,18,36.305,137.1
711,KAMIOKA,18,36.322,137.308
712,SHIRAKAWA,18,36.273,136.897
714,MIBORO,18,36.147,136.908
715,KIYOMI,18,36.18,137.045
825,TAIZA,18,35.737,135.087
853,KASUMI,18,35.625,134.627
909,SAKAI,18,35.543,133.235
910,SHIOTSU,18,35.523,133.567
911,AOYA,18,35.52,133.997
912,KOYAMA,18,35.53,134.165
913,IWAI,18,35.558,134.36
915,KURAYOSHI,18,35.473,133.838
928,KASHIMA,18,35.52,133.022
930,MATSUE,18,35.457,133.065
1279,SHIMOJI,18,24.827,125.143
1280,MIYAKOJIMA,18,24.793,125.278
1281,KAGAMIHARA,18,24.782,125.295
1283,NAKASUJI,18,24.653,124.675
1284,IBARUMA,18,24.508,124.28
1289,ISHIGAKIJIMA,18,24.337,124.163
1290,MORIYAMA,18,24.395,124.245
1291,OHARA,18,24.265,123.872
251,HACHINOHE,19,40.527,141.522
256,TANEICHI,19,40.403,141.7
257,KARUMAI,19,40.317,141.473
260,YAMAGATA,19,40.148,141.572
264,KUZUMAKI,19,40.038,141.437
273,YABUKAWA,19,39.783,141.328
275,MORIOKA,19,39.698,141.165
276,KUZAKAI,19,39.65,141.353
279,SHIWA,19,39.547,141.127
283,HANAMAKI,19,39.428,141.135
284,OHASAMA,19,39.47,141.278
291,KANEGASAKI,19,39.225,141.015
292,KITAKAMI,19,39.288,141.11
295,WAKAYANAGI,19,39.132,141.063
296,ESASHI,19,39.183,141.162
299,KOROMOGAWA,19,39.05,141.045
303,ICHINOSEKI,19,38.933,141.125
307,UGUISUZAWA,19,38.805,140.948
309,TSUKIDATE,19,38.735,141.005
312,KAMI,19,38.572,140.727
313,FURUKAWA,19,38.598,140.912
316,IZUMIGADAKE,19,38.407,140.722
317,OHIRA,19,38.473,140.888
322,NIKKAWA,19,38.303,140.637
323,SHIOGAMA,19,38.338,141.013
325,SENDAI,19,38.262,140.897
326,IWANUMA,19,38.107,140.877
327,NATORI,19,38.138,140.917
328,SHIROISHI,19,38.015,140.612
329,ZAO,19,38.127,140.68
330,WATARI,19,38.025,140.858
331,MARUMORI,19,37.932,140.778
332,HIPPO,19,37.827,140.728
397,MONIWA,19,37.892,140.437
398,YANAGAWA,19,37.852,140.588
401,FUKUSHIMA,19,37.758,140.47
404,WASHIKURA,19,37.668,140.26
405,IITATE,19,37.695,140.747
408,INAWASHIRO,19,37.555,140.122
409,NIHOMMATSU,19,37.583,140.43
413,FUNEHIKI,19,37.435,140.577
416,KONAN,19,37.388,140.09
417,KOORIYAMA,19,37.368,140.33
421,YUMOTO,19,37.277,140.063
422,NAGANUMA,19,37.288,140.218
423,TAMAKAWA,19,37.227,140.427
427,TAJIMA,19,37.207,139.795
428,SHIRAKAWA,19,37.132,140.215
461,NASU,19,37.123,140.035
462,IKARI,19,36.922,139.695
463,KUROISO,19,36.982,140.018
1264,AGUNI,19,26.592,127.24
134,NOSAPPU,20,43.393,145.758
213,SHIRIUCHI,20,41.598,140.375
215,SENGEN,20,41.558,140.272
216,MATSUMAE,20,41.423,140.087
230,IMABETSU,20,41.18,140.482
232,SHIURA,20,41.057,140.347
233,KANITA,20,41.045,140.633
234,GOSHOGAWARA,20,40.808,140.458
235,AOMORI,20,40.822,140.768
239,AJIGASAWA,20,40.777,140.205
240,AOMORIOTANI,20,40.733,140.688
243,DAKE,20,40.628,140.263
244,HIROSAKI,20,40.612,140.455
245,KUROISHI,20,40.667,140.585
246,SUKAYU,20,40.648,140.848
248,OWANI,20,40.53,140.555
249,NURUKAWA,20,40.515,140.783
252,IKARIGASEKI,20,40.482,140.62
334,FUJISATO,20,40.32,140.293
335,JIMBA,20,40.403,140.608
336,FUJIWARA,20,40.355,140.78
338,TAKANOSU,20,40.227,140.372
339,ODATE,20,40.252,140.505
340,KAZUNO,20,40.215,140.787
341,WAKIGAMI,20,40.192,140.372
342,YUZE,20,40.12,140.84
343,HACHIMANTAI,20,40.013,140.802
348,ANIAI,20,39.993,140.403
349,HITACHINAI,20,39.903,140.45
350,HINOKINAI,20,39.812,140.585
352,IWAMISANNAI,20,39.707,140.287
354,YOROIBATA,20,39.775,140.665
356,KAKUNODATE,20,39.603,140.557
357,TAZAWAKO,20,39.698,140.732
358,DAISHOJI,20,39.527,140.233
359,OMAGARI,20,39.49,140.495
361,HIGASHIYURI,20,39.305,140.288
362,YOKOTE,20,39.32,140.555
365,JINEGO,20,39.103,140.293
366,YUZAWA,20,39.187,140.463
368,YUNOTAI,20,38.96,140.528
372,SASUNABE,20,38.918,140.2
374,KANEYAMA,20,38.878,140.332
377,SHINJO,20,38.757,140.312
378,SEMI,20,38.755,140.413
381,HIJIORI,20,38.607,140.163
382,OBANAZAWA,20,38.608,140.412
385,MURAYAMA,20,38.46,140.348
387,OISAWA,20,38.39,139.993
388,ATERAZAWA,20,38.37,140.192
390,NAGAI,20,38.105,140.015
391,KAMINOYAMANAKAYAMA,20,38.117,140.213
392,OGUNI,20,38.078,139.735
394,NAKATSUGAWA,20,37.91,139.843
395,TAKAMINE,20,37.998,139.957
403,KITAKATA,20,37.658,139.863
407,NISHIAIZU,20,37.588,139.657
411,KANEYAMA,20,37.473,139.528
415,TADAMI,20,37.343,139.313
583,TSUGAWA,20,37.672,139.447
585,MUROYA,20,37.55,139.37
925,SAIGO,20,36.203,133.333
926,SAIGOMISAKI,20,36.178,133.323
927,AMA,20,36.097,133.097
1288,IRIOMOTEJIMA,20,24.427,123.765
133,NEMURO,21,43.33,145.585
135,ATTOKO,21,43.232,145.258
180,OTAKI,21,42.67,141.078
181,MORINO,21,42.63,141.247
184,TOYAKOONSEN,21,42.565,140.807
185,KARURUSU,21,42.517,141.107
186,SHIRAOI,21,42.543,141.352
188,DATE,21,42.473,140.877
189,NOBORIBETSU,21,42.458,141.118
190,MURORAN,21,42.312,140.975
205,YAKUMO,21,42.252,140.272
206,MORI,21,42.067,140.588
207,ONUMA,21,41.977,140.715
208,KAKKUMI,21,41.905,140.97
209,HOKUTO,21,41.887,140.653
210,HAKODATE,21,41.817,140.753
211,TAKAMATSU,21,41.77,140.822
212,TOITOMARI,21,41.717,141.003
214,KIKONAI,21,41.687,140.445
220,KUMAISHI,21,42.128,139.985
222,SHIOMI,21,42.038,140.088
223,UZURA,21,41.93,140.312
224,ESASHI,21,41.867,140.123
225,ISHIZAKI,21,41.7,140.028
226,OMA,21,41.527,140.912
227,YUNOKAWA,21,41.313,140.957
228,MUTSU,21,41.283,141.21
229,ODANOSAWA,21,41.235,141.397
231,WAKINOSAWA,21,41.145,140.822
236,YAMATOYAMA,21,40.848,140.985
237,NOHEJI,21,40.885,141.16
238,ROKKASHO,21,40.885,141.272
241,SHICHINOHE,21,40.708,141.128
247,MISAWA,21,40.675,141.375
250,TOWADA,21,40.595,141.247
253,YASUMIYA,21,40.427,140.898
254,HERAI,21,40.468,141.177
255,SANNOHE,21,40.383,141.257
258,NINOHE,21,40.298,141.298
262,ARAYA,21,40.103,141.05
263,OKUNAKAYAMA,21,40.06,141.225
267,IWATEMATSUO,21,39.952,141.065
268,KOMA,21,39.868,141.167
271,KAKKONDA,21,39.777,140.945
272,TAKIZAWA,21,39.78,141.097
274,SHIZUKUISHI,21,39.697,140.975
281,SAWAUCHI,21,39.48,140.797
282,TOYOSAWA,21,39.48,140.968
288,YUDA,21,39.31,140.777
298,MATSURUBE,21,39.012,140.865
305,KOMANOYU,21,38.913,140.828
308,KAWATABI,21,38.743,140.76
367,HIGASHINARUSE,21,39.178,140.648
379,MUKAIMACHI,21,38.758,140.517
386,HIGASHINE,21,38.412,140.37
389,YAMAGATA,21,38.255,140.345
393,TAKAHATA,21,38.003,140.207
396,YONEZAWA,21,37.912,140.143
400,HIBARA,21,37.722,140.058
550,CHICHIJIMA,22,27.092,142.19
551,HAHAJIMA,22,26.635,142.162
3,REBUN,23,45.305,141.045
6,MOTODOMARI,23,45.242,141.187
8,KUTSUGATA,23,45.178,141.138
105,TOKORO,23,44.115,144.037
108,ABASHIRI,23,44.017,144.278
109,UTORO,23,44.052,144.982
115,MEMAMBETSU,23,43.88,144.163
116,HIGASHIMOKOTO,23,43.84,144.285
117,KOSHIMIZU,23,43.842,144.485
118,SHARI,23,43.885,144.7
126,RAUSU,23,44.023,145.187
1285,TOKORONO,23,24.467,122.978
1286,YONAGUNIJIMA,23,24.467,123.01
259,ONO,24,40.282,141.667
261,KUJI,24,40.168,141.748
265,SHIMOTOKUSARI,24,40.083,141.712
266,FUDAI,24,40.003,141.883
269,IWAIZUMI,24,39.847,141.795
270,OMOTO,24,39.838,141.953
277,KARIYA,24,39.642,141.773
278,MIYAKO,24,39.647,141.965
280,KAWAI,24,39.598,141.682
285,TSUKIMOSHI,24,39.457,141.507
286,OTSUCHI,24,39.438,141.807
287,YAMADA,24,39.45,141.957
289,TOONO,24,39.338,141.543
290,KOZUCHI,24,39.36,141.878
293,YONESATO,24,39.233,141.31
294,KAMAISHI,24,39.27,141.878
297,SUMITA,24,39.142,141.573
300,DAITO,24,39.038,141.297
301,RIKUZENTAKATA,24,39.025,141.63
302,OFUNATO,24,39.063,141.713
304,SEMMAYA,24,38.922,141.33
306,KESENNUMA,24,38.907,141.557
310,YONEYAMA,24,38.627,141.188
311,SHIZUGAWA,24,38.682,141.448
314,MONO,24,38.56,141.245
315,OGATSU,24,38.522,141.47
318,KASHIMADAI,24,38.46,141.092
319,HIGASHIMATSUSHIMA,24,38.427,141.213
320,ISHINOMAKI,24,38.427,141.298
321,ONAGAWA,24,38.453,141.44
324,ENOSHIMA,24,38.398,141.597
399,SHINCHI,24,37.875,140.918
402,SOMA,24,37.783,140.925
406,HARAMACHI,24,37.638,140.985
410,TSUSHIMA,24,37.56,140.753
414,NAMIE,24,37.492,140.965
418,KAWAUCHI,24,37.337,140.808
419,TOMIOKA,24,37.347,141.017
424,ONONIIMACHI,24,37.287,140.625
425,KAWAMAE,24,37.207,140.75
426,HIRONO,24,37.233,141.0
429,ISHIKAWA,24,37.147,140.46
432,FURUDONO,24,37.09,140.56
433,TAIRA,24,37.065,140.877
434,HIGASHISHIRAKAWA,24,36.938,140.408
435,YAMADA,24,36.933,140.733
436,ONAHAMA,24,36.947,140.903
437,HANAZONO,24,36.868,140.637
438,KITAIBARAKI,24,36.833,140.772
439,DAIGO,24,36.778,140.345
440,TOKUDA,24,36.778,140.482
441,ONO,24,36.743,140.593
442,TAKAHAGI,24,36.707,140.717
443,HITACHIOMIYA,24,36.607,140.325
444,NAKANO,24,36.515,140.473
445,HITACHI,24,36.58,140.645
446,KADOI,24,36.333,140.033
447,KASAMA,24,36.383,140.237
448,MITO,24,36.38,140.467
449,KOGA,24,36.202,139.717
450,SHIMODATE,24,36.282,139.988
451,KAKIOKA,24,36.233,140.188
452,MINORI,24,36.237,140.325
453,SHIMOTSUMA,24,36.168,139.945
454,HOKOTA,24,36.168,140.527
455,BANDO,24,36.035,139.893
456,TSUKUBA,24,36.057,140.125
457,TSUCHIURA,24,36.103,140.22
458,EDOSAKI,24,35.96,140.32
459,KASHIMA,24,35.963,140.622
460,RYUGASAKI,24,35.89,140.212
465,OTAWARA,24,36.84,140.035
467,IMAICHI,24,36.727,139.677
468,SHIOYA,24,36.757,139.883
470,TAKANEZAWA,24,36.607,139.998
471,NASU-KARASUYAMA,24,36.642,140.117
472,KANUMA,24,36.592,139.735
473,UTSUNOMIYA,24,36.548,139.868
474,KUZUU,24,36.432,139.59
475,MOOKA,24,36.477,139.987
476,ASHIKAGA,24,36.302,139.473
477,SANO,24,36.363,139.57
478,TOCHIGI,24,36.373,139.703
479,OYAMA,24,36.338,139.83
511,ABIKO,24,35.863,140.11
512,KATORI,24,35.858,140.502
513,TONOSHO,24,35.822,140.685
514,FUNABASHI,24,35.712,140.043
515,SAKURA,24,35.728,140.212
516,NARITA,24,35.763,140.385
517,CHOSHI,24,35.738,140.857
518,YOKOSHIBAHIKARI,24,35.657,140.48
519,CHIBA,24,35.602,140.103
520,MOBARA,24,35.417,140.31
522,USHIKU,24,35.397,140.148
524,OOTAKI,24,35.252,140.215
527,KATSUURA,24,35.15,140.312
744,IKAWA,25,35.217,138.222
749,SAKUMA,25,35.057,137.762
750,KOSHIKIDAIRA,25,35.01,137.98
751,KAWANEHONCHO,25,35.102,138.128
755,KUMA,25,34.958,137.733
758,MIKKABI,25,34.802,137.557
759,TENRYU,25,34.89,137.813
760,MIKURA,25,34.895,137.94
764,HAMAMATSU,25,34.753,137.712
776,INABU,25,35.212,137.507
777,CHAUSUYAMA,25,35.22,137.66
780,TOYOTA,25,35.132,137.177
781,AZO,25,35.078,137.413
782,OBU,25,34.995,136.943
783,OKAZAKI,25,34.918,137.193
784,TSUKUDE,25,34.977,137.425
785,SHINSHIRO,25,34.907,137.518
786,SENTOREA,25,34.858,136.805
787,ISSHIKI,25,34.812,137.028
788,GAMAGOORI,25,34.845,137.217
789,MINAMICHITA,25,34.74,136.938
790,TOYOHASHI,25,34.75,137.342
791,IRAKO,25,34.628,137.093
792,TAHARA,25,34.627,137.222
795,YOKKAICHI,25,34.94,136.58
796,KAMEYAMA,25,34.87,136.453
797,UENO,25,34.762,136.142
798,KASATORIYAMA,25,34.725,136.308
799,TSU,25,34.733,136.518
800,NABARI,25,34.635,136.112
801,HAKUSAN,25,34.625,136.322
802,OBATA,25,34.528,136.665
803,KAYUMI,25,34.448,136.39
804,TOBA,25,34.482,136.825
805,FUJISAKATOGE,25,34.323,136.488
808,MIYAGAWA,25,34.278,136.208
848,SAKAI,25,34.555,135.485
849,YAO,25,34.597,135.6
850,KANKUJIMA,25,34.433,135.232
851,KAWACHINAGANO,25,34.423,135.543
852,KUMATORI,25,34.385,135.35
877,SUMOTO,25,34.338,134.905
878,NANDAN,25,34.218,134.72
879,NARA,25,34.693,135.827
880,HARI,25,34.605,135.953
881,TAWARAMOTO,25,34.555,135.785
882,SONI,25,34.522,136.158
883,KATSURAGI,25,34.488,135.703
884,OUDA,25,34.488,135.932
885,GOJO,25,34.38,135.73
886,YOSHINO,25,34.378,135.9
887,TENKAWA,25,34.27,135.883
891,KATSURAGISAN,25,34.347,135.437
892,KATSURAGI,25,34.31,135.528
893,TOMOGASHIMA,25,34.28,135.0
894,WAKAYAMA,25,34.228,135.163
895,KOYASAN,25,34.222,135.59
1032,ANABUKI,25,34.04,134.157
1033,TOKUSHIMA,25,34.067,134.573
1034,HANDA,25,33.99,134.037
1035,KYOJO,25,33.867,133.903
1055,TOMISATO,25,33.915,133.51
1072,MOTOYAMA,25,33.753,133.575
