242,209.645966,144.141434,126.018761,115.995903,113.515846,123.274406,188.961105,187.093460,188.482986,176.048141,219.718521,232.428650
333,210.786743,144.943771,127.329361,116.587326,114.629280,127.834991,195.807388,191.185211,190.626129,176.531891,220.428085,234.485382
337,207.897842,143.274124,126.594414,116.087982,114.864136,130.381378,199.346115,193.684158,191.539047,175.245361,217.393188,231.571335
344,231.835602,157.018341,135.419800,120.443680,117.617462,135.917282,209.102341,195.615219,196.202896,184.380081,235.254059,258.361115
345,220.131149,150.214981,131.047546,118.075821,116.408524,135.062408,207.220154,196.237381,194.733521,179.681488,225.639435,245.362778
346,215.683945,147.686981,129.457352,117.368774,115.878220,133.549194,204.661591,195.518951,193.666489,178.077805,222.616150,240.392792
347,199.050751,138.009903,123.352104,114.211182,114.420395,132.693741,201.949600,196.266647,191.949432,171.414246,208.540771,221.747757
351,197.753662,137.054092,122.537315,113.490494,114.347298,134.784012,204.920135,197.846008,192.875778,170.557922,205.732361,220.178055
353,187.047104,130.919952,118.848610,111.871902,113.475388,132.921722,200.913376,197.117737,191.262283,166.562515,197.517883,208.150604
355,183.412964,128.605850,117.153564,110.774483,113.116188,134.181351,202.313049,198.092651,191.694519,164.942566,192.937637,203.896301
360,193.866623,134.418610,120.249344,111.692871,113.868378,137.673218,208.603989,199.659042,193.949951,168.443054,199.206039,215.309647
363,205.593887,141.193741,124.368195,113.474472,115.060783,140.447067,213.611267,200.354523,195.859314,172.573380,207.752167,228.217957
364,181.457336,127.037148,115.382782,109.140358,112.669434,137.147446,206.217270,199.656433,192.993454,163.710678,187.718643,201.103745
369,242.335388,162.840973,138.654770,120.800446,119.751396,147.563934,225.510971,200.420944,201.602615,186.209625,236.677460,268.779236
370,200.081696,137.737244,121.577736,111.403008,114.690826,143.657791,216.685059,201.282776,196.559280,169.753998,199.408249,220.987000
371,184.296234,128.483383,115.764404,108.764618,112.872307,139.847565,209.993439,200.512985,194.214981,164.364822,187.540421,203.678970
373,201.749954,138.702866,122.122078,111.515129,115.072556,145.323166,218.694641,201.501297,197.197601,170.117081,199.638351,222.456314
375,193.987915,134.095047,119.023956,109.848412,114.273491,144.868362,216.985062,201.426620,196.477631,167.254395,192.480621,213.525497
376,181.983246,127.012459,114.505219,107.767754,112.763680,141.651474,211.578354,200.821198,194.676544,163.277557,183.523666,200.447540
380,188.980713,131.126541,117.038170,108.775909,113.809761,144.761475,215.996826,201.342361,196.086624,165.433380,187.720642,207.702377
383,214.020538,146.100739,127.176544,113.872787,117.653488,152.283600,227.323166,201.796463,200.196686,173.728943,206.459381,234.771606
384,187.496445,130.289536,116.479836,108.310555,114.160500,147.106247,217.923523,201.457520,196.642044,164.653763,184.614044,205.276962
564,238.843903,161.202927,138.012421,119.789558,122.339592,160.772934,238.343124,201.026947,205.007462,182.028915,224.621490,261.174713
565,305.282990,202.365433,167.677322,137.334274,135.679520,178.450302,257.768402,195.412674,220.219559,205.381027,273.163666,331.102173
566,195.455811,135.210281,120.052498,110.073914,116.230324,152.622604,224.363342,201.687012,198.725159,166.902313,188.812027,213.014221
567,201.775864,139.183044,123.121017,111.752258,118.008751,156.838074,229.140823,201.600159,200.355591,168.701691,192.499893,219.223190
568,190.603821,132.413422,118.332359,109.203354,116.073463,153.220474,223.876877,201.582687,198.512894,165.190491,183.992447,207.184708
569,307.945984,205.375504,171.046204,139.955673,139.766922,187.040558,263.454834,192.220901,224.352188,204.195450,269.806488,330.591034
570,292.595245,195.543732,164.193008,135.694046,136.420242,183.763367,260.954559,194.264984,219.906738,199.027969,259.415100,315.013367
571,294.141144,196.572311,164.965759,136.191986,136.873581,184.372528,261.414795,193.969452,220.440094,199.493195,260.324554,316.491516
572,197.831238,137.165695,122.406525,111.589180,118.949211,160.282562,231.131439,201.325134,200.960266,167.059708,187.343903,213.707214
573,185.214005,129.451294,116.811256,108.543861,116.517975,155.572372,224.618439,201.392899,198.746201,163.265839,177.941147,200.267349
574,222.686890,152.921448,134.918411,119.028328,125.684006,173.363586,245.846237,199.319687,206.858597,174.342484,204.201050,238.945007
575,218.526245,150.126373,132.422226,117.409767,124.002708,169.957458,242.592834,200.028183,205.456604,173.246628,201.889221,235.088898
576,284.622345,191.733734,162.934372,135.652390,138.236008,189.374176,263.877991,192.341064,220.877258,194.674332,249.544052,303.913391
577,208.525314,144.612671,129.631165,116.379951,124.495895,172.632492,242.701950,199.690109,205.325287,169.615402,192.105148,222.838257
578,182.010635,128.210480,117.351738,109.385422,118.877769,162.281967,229.108627,200.995956,200.355453,161.955246,172.486816,194.836166
579,222.501617,153.349655,136.259781,120.278496,127.627136,177.888321,249.063416,198.319855,208.220322,173.809174,202.313187,237.470200
580,224.931519,155.504135,139.033432,122.493752,130.381531,183.550156,253.361298,196.754288,210.309891,174.046036,202.314636,238.634903
581,208.259827,145.153015,131.431992,118.094490,127.055115,178.445496,246.807510,198.534225,207.075150,169.064270,189.905045,220.996048
582,192.223480,134.990982,123.392654,113.244324,122.875343,170.784225,237.890457,200.167343,203.490631,164.601303,178.602768,204.533646
584,187.406967,132.568497,122.748505,113.443710,123.993843,173.759216,238.931900,199.795898,204.047729,163.032104,173.599274,198.263443
586,203.550629,143.277878,132.120804,119.598358,129.887924,184.890961,250.259781,197.128113,208.797470,167.124649,183.940109,213.908615
587,191.496246,135.647034,126.185699,116.010643,126.893784,179.700912,244.098679,198.702499,206.180664,163.910797,175.384140,201.491882
588,217.186035,152.421341,139.920395,124.811043,134.757401,193.098572,258.072876,193.952789,213.041641,170.584946,192.565948,227.030777
589,175.345123,126.325119,120.709366,113.648613,126.097351,179.043503,239.670151,199.242203,204.995010,159.574997,162.193832,183.213562
590,223.306244,157.169968,144.683060,128.536270,138.728821,199.524506,262.667572,190.932678,216.545334,171.743866,195.170441,231.795105
591,199.417191,141.706375,132.925873,121.203796,132.600769,190.578384,253.106842,195.716293,210.502792,165.513199,178.913345,207.698624
592,174.186249,126.348915,122.331604,115.487312,128.647690,184.273682,242.990784,198.411789,206.687057,159.135834,160.087234,180.691605
593,163.865143,120.162720,118.201294,113.368225,127.257126,181.784927,238.431992,199.184967,205.390244,156.793228,152.343842,169.547089
594,217.268524,154.264114,144.039276,129.164474,140.352966,202.778473,263.366425,189.812744,217.505966,169.520981,189.215347,223.954971
595,201.135147,144.116150,137.088837,125.196777,137.452972,199.270020,258.690430,192.612976,214.190643,165.327347,177.799133,207.168472
596,205.535263,146.183212,137.338730,124.516167,136.013626,196.424210,257.906464,193.399673,213.323364,166.806305,182.128677,212.939072
597,192.048050,138.229385,132.568527,122.356514,135.051270,195.615692,254.669937,194.567612,211.925522,163.151123,171.661850,198.037140
598,183.903641,133.056061,128.655975,119.983574,133.105927,192.466888,250.851669,196.041687,210.164322,161.224014,165.999222,189.703262
599,237.978378,167.788040,153.416077,134.963852,144.977402,207.633438,267.992340,184.820618,223.310699,174.669189,202.845703,244.684418
600,231.647537,163.502075,150.350601,132.926132,143.220779,205.789200,266.673004,186.820831,221.089249,173.248642,199.008011,238.615082
601,202.068359,145.303528,138.909622,126.967354,139.547485,202.709427,260.738831,191.107483,215.910080,165.265427,177.478912,207.143066
602,165.716782,122.483688,122.487404,117.389671,132.084854,191.108459,245.299942,197.504807,208.792450,157.023972,152.039703,169.570007
603,200.933914,145.373886,140.187759,128.661179,141.781296,206.327759,262.353912,189.509155,217.714035,164.577896,175.462479,204.705246
604,173.876129,127.886017,127.103279,120.503151,134.969910,196.232727,250.775146,195.681000,211.124512,158.653534,157.337906,177.512878
606,221.108948,158.427811,149.027054,133.972946,145.889069,210.601242,267.090729,184.498718,222.867722,169.198853,188.847061,225.066040
607,192.689682,140.545700,137.530746,127.628212,141.491272,206.399368,260.850616,190.313766,217.010895,162.479111,169.220932,195.607178
608,249.222565,175.491135,158.665390,138.531921,148.065094,210.310501,269.218750,180.463150,227.763489,176.779999,209.242920,255.232346
609,270.741211,189.149384,165.916092,142.691315,150.735703,209.674789,267.025970,173.186874,234.938538,180.477036,222.395737,276.716339
610,241.223419,171.469254,157.095688,138.742172,149.366470,212.598587,268.737457,178.502350,228.606476,173.433975,201.742096,245.226166
611,236.407272,168.298721,155.185944,137.572479,148.490707,212.238770,268.681427,180.269699,227.018692,172.564011,198.816071,240.503677
612,257.706573,181.740952,162.444092,141.485703,150.829498,211.517105,267.504456,173.725769,233.023026,176.670547,212.464371,262.160919
613,239.915436,171.458984,157.512024,139.796036,150.860275,213.871948,267.800476,175.209717,230.630188,171.748306,199.157913,242.488358
614,239.976303,172.120544,157.918808,140.564346,151.826202,213.896622,266.089539,171.602097,232.495865,170.332657,197.777924,241.461243
615,233.293625,167.812561,155.831833,139.479202,151.246811,214.880524,267.399048,174.867523,230.431152,169.593323,193.825500,234.852264
616,223.282410,161.945999,152.989578,138.546661,151.247284,216.114899,267.307892,176.197174,229.256195,167.085602,186.533737,223.906067
617,223.092957,161.368820,152.388519,137.735947,150.283157,215.421234,267.757660,178.236176,227.939941,167.745377,187.234818,224.427307
618,235.624161,169.885513,156.854416,140.488495,152.232666,214.270767,265.159119,170.257645,232.771164,168.507782,193.957306,236.195343
619,227.436111,164.707748,154.463409,139.404678,151.822998,215.827896,266.757690,173.990601,230.636047,167.514404,188.925446,227.926117
620,213.940582,156.410477,150.252640,137.602768,151.145706,217.099930,267.047089,177.731064,228.143250,164.893860,179.851044,213.785110
621,218.087357,160.004929,152.432861,139.626907,153.097504,217.030365,264.810120,171.116577,231.671631,163.771637,180.795334,216.567001
622,209.112671,154.215317,149.619247,138.283936,152.469513,218.469498,266.136780,175.635498,229.436569,162.826065,175.351120,207.591370
623,321.406403,216.606766,179.726318,147.447342,149.232239,201.320984,267.713715,181.400070,238.186569,202.049713,267.707733,337.176880
624,330.749756,221.693619,181.182343,148.727676,150.023911,201.179901,264.647003,179.301865,243.784302,202.069672,272.007141,346.224915
625,322.289948,216.950775,178.183014,147.417328,149.889801,202.252228,263.768463,176.945663,243.930115,197.145111,263.527863,335.813385
626,319.099243,215.567078,178.582108,147.469330,150.089981,202.919861,266.062897,178.053802,241.193527,198.217834,262.634033,332.807770
627,310.629761,210.873291,175.476898,146.258835,150.095856,203.828644,264.367218,174.932755,241.977875,192.841522,253.705841,322.110504
628,289.019806,199.174591,170.765579,144.288406,150.312286,207.195648,267.316132,175.043610,236.726624,187.187714,237.624680,297.953522
629,281.688202,195.370773,168.527481,143.692627,150.699341,207.768845,265.419312,171.779877,237.474442,182.958115,230.145920,288.628632
630,263.474579,185.513702,163.763016,142.263870,151.229156,209.696381,264.293091,169.092773,235.966476,176.196442,214.981995,267.380585
631,269.702606,188.840164,165.466553,142.733490,151.018677,209.279007,265.222260,170.587357,236.160919,178.791519,220.383286,274.783508
632,250.654800,178.566742,160.464432,141.426575,151.714462,210.968079,263.265198,167.397522,235.075424,171.692368,204.561478,252.533340
633,237.907898,171.389969,157.409698,140.738586,152.290726,213.368927,264.007996,168.435806,233.598236,168.449371,195.134613,238.360825
634,232.366028,168.789169,155.641647,140.372299,152.449051,211.667496,260.083832,163.585876,234.448166,164.962265,189.656845,231.244919
635,223.410248,163.615189,153.742340,140.181046,153.168106,214.492325,261.833221,166.090866,233.426804,163.436020,183.500397,221.562973
636,215.969696,159.891357,151.600677,139.785049,153.402756,213.154648,258.306854,162.076645,233.784256,159.967331,177.125122,212.622986
637,200.078751,150.708527,148.189499,139.714584,154.944275,218.054245,260.525299,166.479156,232.951569,157.294342,166.227890,195.408188
638,223.563507,164.250153,152.926025,139.567490,152.348648,209.786377,256.043732,159.244629,234.330643,160.959427,182.257782,220.816223
639,209.555298,156.544052,149.807983,139.422073,153.553482,212.422760,256.070312,159.829056,233.698685,157.502899,172.049530,205.198914
640,200.428543,151.795105,147.114761,138.733994,153.494553,210.575424,252.256775,156.094925,233.298416,153.929626,164.980682,194.725372
641,198.723267,150.592987,147.309204,139.343948,154.479675,214.063202,255.459747,159.977463,233.514114,154.771713,164.212204,193.139664
642,187.042694,143.961685,144.910751,139.636276,155.952042,217.597931,256.493164,162.729172,233.626434,152.765274,156.216354,180.416550
643,186.202805,143.231094,144.935822,139.770905,156.262436,219.423004,258.372345,165.457352,233.468292,153.462723,156.004913,179.768372
644,181.547165,141.189636,143.324615,139.406464,156.070816,216.293228,253.777527,160.008194,233.719894,150.539856,152.018570,174.112915
645,178.906876,139.247940,143.289917,139.903931,157.056137,220.445145,257.531036,165.558014,233.821823,151.746490,150.845047,171.668594
665,183.060760,134.316559,132.982025,124.811920,139.174011,203.167801,257.112457,192.617508,214.658508,160.413193,162.809128,185.932587
666,189.595062,139.290451,137.792450,128.688614,143.132019,209.066772,261.557526,189.362061,218.252228,161.459305,166.134262,191.352615
667,184.124680,135.290527,134.191681,125.911201,140.388596,205.093872,258.406555,191.755707,215.678329,160.528000,163.132339,186.558685
668,209.242126,151.511459,145.406128,132.680206,145.721176,211.414566,265.833923,185.474884,221.827271,165.935120,179.793762,211.890366
669,199.750107,146.593643,143.699463,133.122238,147.337769,214.260330,265.417511,184.686646,222.762939,163.037018,171.764587,200.472260
670,192.065384,141.864685,140.929291,131.786636,146.580826,213.796844,264.052185,186.259506,221.532745,161.387756,166.441086,192.387741
671,174.752686,131.240250,134.575150,128.695602,144.742523,212.083344,259.952759,189.767120,218.939896,157.913361,154.496613,174.202423
673,181.908752,136.930923,139.856949,133.272064,149.402573,217.972610,263.787476,184.888031,223.699051,158.492905,157.849533,179.882965
674,174.872330,132.319107,136.806793,131.389740,147.905289,216.444061,261.937744,187.333237,221.842758,157.437943,153.444412,172.926575
710,195.211166,146.919098,146.686829,138.691193,154.343369,220.867767,264.279724,174.001999,230.634613,158.554520,164.320404,191.356766
711,187.189056,141.865891,144.224030,137.670654,153.973251,221.900955,264.566864,177.423553,229.250061,157.624985,159.267853,183.148468
712,200.475800,150.353760,148.237991,139.363678,154.570129,219.592178,263.208160,170.727798,231.805115,158.834366,167.424393,196.585907
714,184.401398,141.446091,144.542160,139.372528,156.116058,222.287857,261.973175,171.651917,232.192215,155.077789,155.802307,178.655502
715,182.461044,140.032852,143.913055,138.979568,155.882538,222.983902,262.790222,173.847092,231.489594,155.329147,154.859970,176.897736
825,187.728027,145.498764,141.235382,134.699066,149.227325,196.884308,238.037033,141.429337,228.600311,146.270493,155.231812,180.093246
853,181.802628,142.492050,138.411697,132.251801,146.366425,189.242889,231.450897,134.495071,224.510300,142.821564,151.228226,173.403214
909,177.377701,140.208557,135.087784,126.864861,138.354309,164.768204,215.576508,121.906403,214.332977,139.072876,151.292572,166.959229
910,177.625458,140.545074,135.408005,127.671837,139.795914,170.652634,218.995117,122.876251,215.486115,139.090286,150.194366,167.823318
911,176.365555,139.811264,135.696198,129.225052,142.398483,178.821426,223.925003,126.479218,218.349777,139.351837,148.197479,167.030624
912,176.225098,139.670349,135.990051,129.976791,143.541672,181.951721,225.915619,128.409088,219.814957,139.755142,147.813324,167.043289
913,177.445068,140.246994,136.713257,130.912491,144.813232,185.250275,228.201218,130.870743,221.732239,140.705948,148.418228,168.515854
915,172.455185,137.784637,134.622787,128.668716,141.792145,177.290848,222.833923,124.882622,216.433258,137.879776,145.739731,162.651520
928,173.828888,138.341431,134.563919,126.834366,138.172150,162.648636,214.601471,121.582733,213.115250,138.311050,149.682678,162.637222
930,170.362000,136.872894,134.160812,127.182770,138.783920,165.329849,216.396912,120.750740,211.708496,137.100555,146.836456,159.018204
1279,147.557114,134.806610,139.345093,166.336227,229.384506,195.732056,147.930069,252.518738,240.615280,205.203888,182.539597,152.020721
1280,158.685104,144.753952,147.612564,175.907104,242.748917,226.754883,176.925842,290.766418,262.678406,210.782059,186.892853,162.415894
1281,160.894470,146.714523,149.224167,177.798752,245.319351,232.833435,182.596207,298.141876,267.075500,211.963470,187.799347,164.454788
1283,145.483383,132.781235,137.662125,165.278214,224.548355,192.521500,141.781677,235.899597,237.761490,206.934860,182.142212,147.525375
1284,143.969208,131.665833,137.324310,165.417328,221.866684,196.411224,140.376236,223.058273,236.262466,207.947693,180.385483,142.543884
1289,162.470505,148.619110,152.400620,183.240387,243.840454,256.568481,191.279327,279.290131,274.152252,218.512695,186.307526,156.319855
1290,158.427216,144.812744,148.825928,178.981018,238.978714,241.318085,179.307175,268.102875,265.599060,216.044083,185.416550,154.051712
1291,157.334305,144.565353,149.964676,180.501740,238.288757,253.035126,182.663986,257.578552,265.317993,216.390701,182.053207,147.983215
