133,118.302849,78.507942,99.042274,102.102982,127.374138,129.504440,139.404419,141.846573,191.549362,168.478775,149.478790,134.275192
135,92.017342,60.113628,83.968674,93.917107,120.917038,121.720299,131.547485,143.386551,180.351303,150.052261,122.645645,103.743614
180,102.849869,80.771660,76.928993,83.937752,94.329285,89.322983,132.039871,168.792526,167.343491,136.419052,135.545258,111.978554
181,101.253792,79.675438,77.253487,84.229149,95.442795,91.941505,134.913589,171.293518,168.199768,135.717712,134.732010,110.958641
184,106.901489,83.373932,78.055244,85.390488,94.146385,87.702515,130.397415,166.237274,166.580856,137.114029,137.132202,114.872032
185,105.099426,82.293091,79.144890,85.916191,96.111893,92.597336,136.295563,171.315048,168.677994,136.863281,137.394440,114.635361
186,99.764832,78.741623,77.667435,84.964905,96.670296,94.372276,137.387421,173.294449,168.926224,134.755981,133.406570,109.518700
188,109.186020,84.864464,80.079933,86.799660,95.607941,90.730316,134.557800,168.882217,167.995087,138.033737,139.656250,118.052734
189,105.786659,82.770447,79.915749,86.635651,96.771095,93.815170,137.840775,172.237289,169.167542,136.966949,137.929123,115.440727
190,111.331268,86.325935,82.637787,88.848526,97.783501,95.161430,140.322159,172.609146,169.903824,138.683090,141.949677,121.114281
205,120.208611,90.707565,82.311348,89.906441,94.871063,85.853111,128.637207,160.844604,164.947861,139.209534,142.830994,126.165649
206,126.582481,95.393585,88.552391,93.228539,99.054855,95.931335,143.283157,170.944763,170.541641,143.541321,152.597244,136.728256
207,126.201660,95.402542,89.750694,94.098618,100.463837,99.320602,147.618683,174.251648,172.094482,143.630356,153.216293,137.166992
208,118.535179,91.033806,88.394371,93.729958,101.757027,102.772514,150.566116,177.924515,173.222610,140.727859,147.580414,129.418686
209,130.773529,98.128937,91.872353,95.558434,101.246330,100.616508,149.882263,174.833862,172.819855,145.246780,156.778168,142.239349
210,128.970306,97.215080,92.134232,95.935425,102.158607,102.891586,152.480225,177.046768,173.738007,144.611465,155.729111,140.707336
211,127.092056,96.185402,92.023918,96.076591,102.715103,104.279480,153.870758,178.362808,174.235336,143.869888,154.333023,138.842911
212,119.426872,91.730125,90.131378,95.471603,103.443710,106.259811,154.775940,180.351608,174.655762,140.802734,148.050064,130.542770
214,144.723419,106.242966,97.619896,99.300949,102.944656,103.026749,154.728027,175.283600,174.470123,150.273712,167.448486,157.572327
220,126.085533,93.303650,83.209282,91.568497,94.653519,83.093460,124.523079,156.067688,163.047729,139.204376,143.436142,130.206467
222,133.453766,98.221153,87.927322,93.944160,96.937820,88.400909,132.974884,161.155106,166.426453,143.456238,152.301575,140.404846
223,137.889191,101.678772,92.326706,96.022690,99.674309,95.505142,143.714996,168.562241,170.526184,146.931030,159.814606,148.096466
224,144.332321,105.012512,93.999603,97.448006,99.745186,94.214584,142.206085,165.970520,169.993896,148.513184,163.098495,154.098907
225,156.252869,111.955170,99.342545,100.828629,101.805046,97.527267,147.707642,167.700485,172.249619,153.099014,172.738205,167.696793
226,126.320625,95.946083,93.635025,97.910789,104.859299,109.060654,159.395538,181.935730,176.159836,143.325226,153.467133,138.320633
227,125.515190,95.613434,94.748436,99.335968,106.431259,112.672493,163.407028,184.293289,177.612823,142.844131,152.294205,137.521576
228,109.103859,85.913300,89.703583,97.549561,106.898766,113.895409,160.864243,184.741379,177.190475,136.353745,137.943024,118.789871
229,96.485603,78.387337,86.080971,96.615639,107.656441,115.360176,158.941162,184.600861,177.091812,131.496750,126.617470,104.221375
231,135.677963,101.635979,98.971756,101.761887,107.509438,114.944511,168.184189,185.564621,179.177261,146.804871,160.513977,149.121002
236,124.416702,95.149139,96.771873,101.916931,109.058868,119.400673,170.857849,187.981369,180.479034,142.397537,149.864044,136.366669
237,111.075684,87.307442,92.451195,100.276543,109.056778,119.334023,167.328659,187.174728,179.656799,137.263962,138.352463,120.981567
238,102.592117,82.297607,89.890434,99.479477,109.306847,119.770744,165.406174,186.617142,179.352448,134.081711,130.896835,111.165581
241,112.333466,88.095505,93.603439,101.283417,109.785820,121.529648,170.114716,188.120178,180.736023,137.914001,138.805206,122.445946
247,92.436638,76.401192,88.003464,99.869598,110.677948,123.229355,165.975342,186.347748,180.298599,130.750092,121.254196,99.378395
250,101.601662,81.821564,90.903046,100.867142,110.515045,123.464401,169.124573,187.608765,180.985321,134.153107,128.995392,110.030212
253,129.372910,98.010918,99.692215,104.019470,110.528000,124.371780,177.947525,190.681580,183.172638,144.605392,152.430847,142.195496
254,105.821411,84.303558,92.551285,101.677605,110.741264,124.653908,171.740051,188.470032,181.830612,135.894974,132.180634,114.955597
255,97.933746,79.697533,90.635513,101.423340,111.270126,126.144356,170.942642,187.756882,182.049118,133.301773,124.982658,105.839127
258,93.148407,76.905441,89.636330,101.430710,111.700974,127.493561,170.864578,187.248413,182.393768,131.887344,120.498672,100.326866
262,111.519882,87.501884,94.890648,102.876900,111.158630,127.953629,177.400925,190.264893,183.969864,138.600876,135.439621,121.700821
263,95.143372,78.003143,90.631470,101.980026,111.833046,129.550720,173.961075,187.962051,183.659012,133.186691,121.185829,102.782387
267,107.342682,84.981812,93.817574,102.636032,111.283760,129.400894,177.938736,190.090439,184.538620,137.482101,131.060547,116.948349
268,96.352554,78.583046,91.044510,102.083710,111.715050,130.922272,176.116257,188.438889,184.596008,134.102753,121.262421,104.307785
271,114.814926,89.126106,95.706940,102.959900,110.951904,130.207397,181.445404,191.582016,185.628769,140.333801,136.386642,125.631401
272,100.759048,81.042740,92.075928,102.181396,111.400505,131.078156,177.918091,189.331970,185.095932,135.737839,124.509583,109.442459
274,110.174698,86.369469,94.357285,102.520340,110.941315,130.895752,180.925552,191.037582,185.763992,138.961655,131.959976,120.316406
281,121.820488,92.796577,96.994057,102.717102,110.351906,131.590179,185.656830,193.209106,187.126282,143.153122,140.254837,133.682816
282,105.478874,83.418526,92.727776,101.729630,110.646423,132.223129,181.244476,190.454529,186.395111,137.974609,126.609711,114.968948
288,119.089752,90.998245,95.712265,101.887398,109.952858,132.317825,185.951248,193.003281,187.535248,142.566605,136.699524,130.500839
298,101.880066,80.746201,90.329926,99.697296,109.415779,133.700577,182.098785,189.390060,187.509094,138.234436,120.321320,110.729019
305,102.239914,80.824097,90.015915,99.220100,109.094719,133.827194,182.368668,189.310165,187.705826,138.647690,119.867561,111.051506
308,102.989326,81.050072,89.495583,98.381126,108.576958,134.043793,182.778137,189.182236,188.008636,139.411148,119.163506,111.690445
367,127.738441,95.792374,97.637390,102.000244,109.664223,132.868622,189.301376,194.536560,188.421478,145.494675,142.795868,140.248337
379,126.188187,94.397697,95.597778,99.920227,108.711823,134.521118,190.892075,194.528534,189.364426,145.689743,137.910324,137.850861
386,126.351097,94.274490,94.630234,98.543060,108.463104,136.658417,192.752335,194.689804,190.200165,146.422485,134.965973,137.111694
389,121.939339,91.699181,93.046753,97.637970,108.379547,137.435562,191.756577,193.815964,190.245468,145.683563,130.133560,131.671738
393,122.532959,92.202698,93.267265,97.404167,109.162247,140.587906,194.141846,194.363190,191.197052,146.550858,128.491684,131.294846
396,123.523796,92.906967,93.792175,97.607597,109.728088,142.299973,195.720810,194.850815,191.734344,147.048767,128.515945,131.945602
400,120.903175,91.726318,93.680717,97.749771,110.868744,145.431351,196.855743,194.892639,192.533447,147.129578,125.079124,128.086563
