3,25.482319,30.061703,21.539877,38.135967,57.762543,29.570606,46.980652,120.193039,142.380341,117.568718,68.850311,24.116417
6,47.591209,43.000061,32.715153,43.402000,61.465866,38.038868,61.491558,125.843636,146.666275,127.812096,91.475845,52.547356
8,42.851887,40.445866,30.860859,43.235352,61.510574,37.157146,59.439182,125.692162,146.111511,125.012527,86.224251,46.009674
105,41.774956,30.795704,48.309498,56.343327,74.601997,76.520607,100.432816,120.624496,122.293846,88.854660,62.986298,41.961906
108,36.385532,27.817408,47.702763,57.983597,77.432281,78.083672,97.739433,119.617722,124.342606,86.977180,56.207066,33.928349
109,32.585327,29.846785,53.721588,63.266884,82.081070,82.528244,91.107529,106.573166,128.120773,85.239685,47.172409,23.196182
115,39.918259,29.500965,48.512756,59.987827,80.577835,80.128510,101.085670,127.182678,129.732986,91.897423,61.919136,39.379833
116,38.530396,28.716812,48.779606,61.064056,82.203781,81.286911,100.294533,126.651848,131.120514,91.966553,60.030766,37.106281
117,37.137573,28.297705,49.688320,62.197063,83.529037,82.408958,98.567902,123.482903,131.789444,91.519386,57.360214,34.201878
118,36.506596,28.957373,51.414345,63.297565,84.251762,83.293953,96.482719,118.606636,131.907471,90.858315,55.020737,31.743374
126,38.951271,35.578712,59.348515,67.627686,86.324554,86.523003,92.449730,106.143517,134.541275,91.209671,53.270092,29.324921
1285,72.984146,68.946312,85.837067,106.120140,137.116119,23.603159,-31.781561,-26.211325,99.310310,173.489380,146.813614,68.299568
1286,74.933662,70.674072,87.268631,107.772614,139.442856,28.435568,-27.030806,-19.449095,103.084435,174.450943,147.724594,70.302299
