1056,49.854324,70.994545,114.275269,154.777023,180.217239,286.599030,283.403809,194.416580,236.553207,113.647034,74.330887,39.661304
1057,49.687214,70.907227,114.086571,154.515564,179.860138,288.141296,285.219177,194.119263,234.645523,112.260887,73.670067,39.333450
1058,49.227577,71.827324,118.051094,162.284943,188.850113,297.777130,286.934387,207.169983,249.743729,121.136772,78.130379,40.057758
1059,50.014938,72.260956,118.827927,163.321869,190.008560,292.703644,281.567474,208.087997,255.675949,125.597038,80.482330,41.291985
1060,48.447445,71.708931,117.916702,162.431763,188.876266,309.892517,297.858215,208.191986,241.532700,114.682495,75.090698,38.583641
1061,48.833595,72.205193,119.343712,164.922455,191.815140,307.943756,293.884460,212.094604,250.013657,120.420082,78.007721,39.652973
1062,49.382439,72.709969,120.514122,166.863464,194.001770,305.815216,290.575714,214.862442,256.619293,125.009636,80.472328,40.703720
1071,51.001633,73.712982,122.385025,169.498276,196.771774,297.160034,281.422058,217.456909,268.394440,133.842957,85.310768,43.152992
1097,66.691643,80.523376,117.546280,158.672668,174.113968,303.541321,331.085968,189.628479,196.620178,88.172897,78.158745,52.074947
1098,64.420967,78.884483,115.644821,154.447830,170.843613,297.210999,324.168976,184.429871,195.106567,88.028107,75.576576,49.647518
1099,60.587135,76.453491,113.536530,150.777313,168.889786,294.673767,317.229095,180.852631,195.337296,88.252853,71.994698,46.088924
1100,61.549412,77.371262,114.971458,154.217850,171.882401,302.661377,324.099182,185.444153,195.939728,87.661415,73.073845,47.150711
1101,59.159412,76.204277,114.729301,154.527115,173.359665,307.679810,323.998352,187.158981,197.653656,87.976715,71.298233,45.087479
1172,52.168575,72.384598,113.334457,152.957214,175.423492,306.748901,311.618866,189.379593,208.234268,94.099838,68.145653,39.279007
1174,52.535301,73.217941,115.137596,156.665451,179.301514,318.113586,319.096588,194.852509,209.103500,93.613312,68.584450,39.680122
